[
  {
    "Classification": "yarn-env",
    "Properties": {},
    "Configurations": [
      {
        "Classification": "export",
        "Properties": {
          "PYSPARK_PYTHON": "/usr/bin/python3"
        }
      }
    ]
  },
  {
    "Classification": "spark-defaults",
    "Properties": {
      "spark.driver.memory": "10g",
      "spark.driver.cores": 2,
      "spark.executors.memory": "10g",
      "spark.executors.cores": 2,
      "spark.executor.instances": 8,
      "spark.executor.memoryOverhead": "2g",
      "spark.default.parallelism": 12,
      "spark.dynamicAllocation.enabled": false,
      "spark.sql.caseSensitive": true,
      "spark.sql.session.timeZone": "UTC",
      "yarn.nodemanager.vmem-check-enabled":"false",
      "yarn.nodemanager.pmem-check-enabled":"false"
    }
  },
  {
    "Classification": "spark-env",
    "Properties": {}
  }
]