{
  "Name": "eco.inquire.deltaLake",
  "JobFlowRole": "Role-EC2-S3-EcoInquire-3",
  "ServiceRole":"EMR_DefaultRole",
  "Applications": [
    {
      "Name": "Hadoop"
    },
    {
      "Name": "Spark"
    },
    {
      "Name": "Hive"
    }
  ],
  "BootstrapActions": [
    {"Name":"Install inquire dependencies",
    "ScriptBootstrapAction": {
      "Path": "s3://eco.inquire.frontier/install_inquire_dependencies.sh"
    }}
  ],
  "Configurations": [
    {
      "Classification": "yarn-env",
      "Properties": {},
      "Configurations": [
        {
          "Classification": "export",
          "Properties": {
            "PYSPARK_PYTHON": "/usr/bin/python3"
          }
        }
      ]
    },
    {
      "Classification": "spark-defaults",
      "Properties": {
        "spark.driver.memory": "10g",
        "spark.driver.cores": "2",
        "spark.executors.cores": "2",
        "yarn.nodemanager.pmem-check-enabled": "false",
        "spark.executors.memory": "10g",
        "yarn.nodemanager.vmem-check-enabled": "false",
        "spark.sql.caseSensitive": "true",
        "spark.sql.session.timeZone": "UTC",
        "spark.default.parallelism": "32",
        "spark.executor.memoryOverhead": "2g",
        "spark.executor.extraJavaOptions": "-XX:+UseG1GC -XX:+UnlockDiagnosticVMOptions -XX:+G1SummarizeConcMark -XX:InitiatingHeapOccupancyPercent=35 -verbose:gc -XX:+PrintGCDetails -XX:+PrintGCDateStamps -XX:OnOutOfMemoryError='kill -9 %p'",
        "spark.executor.instances": "8",
        "spark.dynamicAllocation.enabled": "false",
        "spark.driver.extraJavaOptions": "-XX:+UseG1GC -XX:+UnlockDiagnosticVMOptions -XX:+G1SummarizeConcMark -XX:InitiatingHeapOccupancyPercent=35 -verbose:gc -XX:+PrintGCDetails -XX:+PrintGCDateStamps -XX:OnOutOfMemoryError='kill -9 %p'"
      }
    }
  ],
  "LogUri": "s3n://aws-logs-097289183747-us-east-1/elasticmapreduce/deltalake/",
  "Tags": [{"Key": "Stage", "Value": "dev"},{"Key": "Name","Value": "eco.inquire.deltaLake"}],
  "ReleaseLabel": "emr-5.30.1",
  "ScaleDownBehavior": "TERMINATE_AT_TASK_COMPLETION",
  "EbsRootVolumeSize": 10,
  "Instances": {
    "Ec2KeyName": "inquire-dev",
    "KeepJobFlowAliveWhenNoSteps": true,
    "TerminationProtected": false,
    "Ec2SubnetId": "subnet-0164945e",
    "EmrManagedMasterSecurityGroup": "sg-0e3d7bda2f31a3834",
    "EmrManagedSlaveSecurityGroup": "sg-0e3d7bda2f31a3834",
    "AdditionalMasterSecurityGroups": ["sg-057bc5db2304875d0"],
    "AdditionalSlaveSecurityGroups": ["sg-057bc5db2304875d0"],
    "InstanceGroups": [
      {
        "Name": "Master",
        "Market": "ON_DEMAND",
        "InstanceRole": "MASTER",
        "InstanceType": "m5.xlarge",
        "InstanceCount": 1,
        "EbsConfiguration": {
          "EbsBlockDeviceConfigs": [
            {
              "VolumeSpecification": {
                "SizeInGB": 32,
                "VolumeType": "gp2"
              },
              "VolumesPerInstance": 2
            }
          ]
        }
      },
      {
        "Name": "Core",
        "Market": "SPOT",
        "InstanceRole": "CORE",
        "InstanceType": "m5d.2xlarge",
        "InstanceCount": 32,
        "EbsConfiguration": {
          "EbsBlockDeviceConfigs": [
            {
              "VolumeSpecification": {
                "SizeInGB": 32,
                "VolumeType": "gp2"
              },
              "VolumesPerInstance": 2
            }
          ]
        }
      },
      {
        "Name": "Task",
        "Market": "SPOT",
        "InstanceRole": "TASK",
        "InstanceType": "m5d.2xlarge",
        "InstanceCount": 32
      }
    ]
  }
}