{
  "Name": "Process subscribers",
  "ActionOnFailure": "CONTINUE",
  "HadoopJarStep": {
    "Jar": "command-runner.jar",
    "Args": [
      "spark-submit",
      "--deploy-mode", "cluster",
      "--class", "com.commscope.eco.Inquire",
      "--files", "s3://eco.inquire.frontier/spark/log4j.properties,s3://eco.inquire.frontier/spark/application-bronze.cfg,s3://eco.inquire.frontier/spark/subscriber-bronze.cfg",
      "--driver-java-options",
      "-Dlog4j.configuration=log4j.properties",
      "--driver-java-options",
      "-Dconfig.resource=application-bronze.cfg",
      "--driver-java-options",
      "-Dconfig.resource=subscriber-bronze.cfg",
      "s3://eco.inquire.frontier/spark/inquire-3.1.0-SNAPSHOT-jar-with-dependencies.jar",
      "application-bronze.cfg",
      "subscriber-bronze.cfg"
    ]
  }
}
