[
  {
    "Name": "Verify element-ts",
    "ActionOnFailure": "CONTINUE",
    "HadoopJarStep": {
      "Jar": "command-runner.jar",
      "Args": [
        "spark-submit",
        "--deploy-mode", "cluster",
        "--class", "com.commscope.eco.Inquire",
        "--files", "s3://eco.inquire.${customer.name}/spark/log4j.properties,s3://eco.inquire.${customer.name}/spark/element-ts-verify.json",
        "--driver-java-options",
        "-Dlog4j.configuration=log4j.properties",
        "--driver-java-options",
        "-Dconfig.resource=element-ts-verify.json",
        "s3://eco.inquire.${customer.name}/spark/inquire-3.1.0-SNAPSHOT-jar-with-dependencies.jar",
        "element-ts-verify.json"
      ]
    }
  }
]