{
  "name": "diagnostic-ts",
  "default_timezone": "UTC",
  "spark.sql.session.timeZone": "UTC",
  "spark.sql.caseSensitive": true,
  "input_location": "s3://eco.inquire.${customer.name}/archive/diagnostic-ts/2020/08/1*/",
  "output_location": "s3://eco.inquire.${customer.name}/warehouse/misc/",
  "spark.sql.warehouse.dir": "s3://eco.inquire.${customer.name}/data-audit/",
  "input_file_pattern": "diagnostic-ts-*.json.gz",
  "tmp_proc_folder": "spark_tmp_proc",
  "input_format": "json",
  "output_format": "json",
  "timestamp_multiplier": 0.001,
  "primary_timestamp_column": "ts",
  "create_time_dims": true,
  "time_dim_columns": ["year", "month", "day"],
  "time_dim_prefix": "ts_",
  "partitions": ["ts_year","ts_month","ts_day","id"],
  "filter_expr":"id in ('b020e7369f8e11eaa65b0050569979b6')"
}