{
  "default_timezone": "UTC",
  "spark.sql.caseSensitive": true,
  "spark.sql.session.timeZone": "UTC",
  "spark.driver.maxResultSize": "2g",
  "spark.sql.files.ignoreCorruptFiles": "true",
  "warehouse_location": "s3://eco.inquire.${customer.name}/${warehouse-dir}/",
  "input_location": "s3://eco.inquire.${customer.name}/data/${staging-dir}/",
  "output_location": "s3://eco.inquire.${customer.name}/${output-dir}/bronze/",
  "tmp_proc_folder": "spark_tmp_proc",
  "input_format": "json",
  "output_format": "parquet",
  "output_save_mode": "append",
  "save_options": {
    "mergeSchema": true
  },
  "timestamp_multiplier": 0.001,
  "primary_timestamp_column": "ts",
  "create_time_dims": true,
  "time_dim_columns": ["year","date","month","day","hour"],
  "time_dim_prefix": "ts_",
  "partitions": ["ts_date"],
  "auditor": {
    "audit": true
  }
}