{
  "name": "element-ts",
  "input_location": "s3://eco.inquire.${customer.name}/${input-ts-dir}-daily/bronze/element-ts",
  "output_location": "s3://eco.inquire.${customer.name}/${output-ts-dir}-daily/silver/",
  "output_save_mode": "append",
  "model": "com.commscope.eco.model.ElementTs",
  "model-args": {
    "wifiClients": false,
    "radioClients": false,
    "wifiDevices": false,
    "wifiStats": false,
    "radioStats": false,
    "steeringStats": false,
    "accessPointStats": false,
    "voiceStats": false,
    "hncStats": false
  },
  "input_filter": {
    "filter": "com.commscope.eco.SimpleInputFilter",
    "args": "ts_date like '2021-02-01'"
  },
  "partitions": ["ts_date"],
  "splitter": {
    "split_on" : [
      {"column_name": "ts_date", "numeric": false},
      {"column_name": "ts_hour", "numeric": true}
    ],
    "order_by": "ts",
    "audit_enabled" : true,
    "audit_output_location": "s3://eco.inquire.${customer.name}/${output-ts-dir}-daily/silver/element-ts-audit"
  },
  "output": {
    "transformations": [
      {
        "transformation": {
          "name": "renameColumns",
          "args": {
            "id": "device_id"
          }
        }
      },
      {
        "transformation": {
          "name": "extractColumns",
          "args": [
            {
              "properties": ["*"]
            }
          ]
        }
      },
      {
        "transformation": {
          "name": "dropColumns",
          "args": {
            "__root__": ["bridgeModeEnabled", "bridgeModeSupported",
              "channelScanEnabled", "connectionType",
              "defaultConnectionService", "dhcpEnabled", "dnsEnabled", "dnsServers",
              "ethernetRxBytes", "ethernetTxBytes",
              "guestNetworkSupported", "hwVersion", "hncEnable",
              "interfaceType", "ipAddress", "lanDhcpEnabled",
              "manufacturerName", "modelName", "modelDesc",
              "macAddress", "name", "pppUsernameCredentials",
              "serialNumber", "swVersion",
              "wanMacAddress"
            ]
          }
        }
      }
    ]
  }
}
