{
  "name": "device-event",
  "input_location": "s3://eco.inquire.${customer.name}/${input-dir}/bronze/element-event",
  "input_file_pattern": "",
  "model": "com.commscope.eco.model.DeviceEvent",
  "partitions": ["ts_date"],
  "output": {
    "transformations": [
      {
        "transformation": {
          "name": "renameColumns",
          "args": {
            "id": "device_id"
          }
        }
      }
    ],
    "schema": {
      "type": "struct",
      "fields": [
        {
          "name": "device_id",
          "type": "string",
          "nullable": false
        },
        {
          "name": "subscriber_id",
          "type": "string",
          "nullable": false
        },
        {
          "name": "type",
          "type": "string",
          "nullable": true
        },
        {
          "name": "message",
          "type": "string",
          "nullable": true
        },
        {
          "name": "device_model",
          "type": "string",
          "nullable": false
        },
        {
          "name": "device_manufacturer",
          "type": "string",
          "nullable": false
        },
        {
          "name": "software_version",
          "type": "string",
          "nullable": false
        },
        {
          "name": "hardware_version",
          "type": "string",
          "nullable": false
        },
        {
          "name": "hnc_enable",
          "type": "long",
          "nullable": false
        },
        {
          "name": "zip",
          "type": "string",
          "nullable": false
        },
        {
          "name": "city",
          "type": "string",
          "nullable": false
        },
        {
          "name": "state",
          "type": "string",
          "nullable": false
        },
        {
          "name": "country",
          "type": "string",
          "nullable": false
        },
        {
          "name": "ts",
          "type": "long",
          "nullable": false
        },
        {
          "name": "ts_day",
          "type": "long",
          "nullable": false
        },
        {
          "name": "ts_month",
          "type": "long",
          "nullable": false
        },
        {
          "name": "ts_year",
          "type": "long",
          "nullable": false
        },
        {
          "name": "ts_date",
          "type": "date",
          "nullable": false
        },
        {
          "name": "ts_processed",
          "type": "long",
          "nullable": false
        }
      ]
    }
  }
}
