{
  "name": "wifi_stat-ts",
  "input_location": "s3://eco.inquire.${customer.name}/${input-ts-dir}/bronze/wifi_stats",
  "output_location": "s3://eco.inquire.${customer.name}/${output-ts-dir}/silver/",
  "output_save_mode": "append",
  "model": "com.commscope.eco.model.WifiStatModel",
  "partitions": ["ts_date"],
  "splitter": {
    "split_on" : [
      {"column_name": "ts_date", "numeric": false},
      {"column_name": "ts_hour", "numeric": true}
    ],
    "partition_size": -1,
    "order_by": "ts",
    "audit_enabled" : true,
    "audit_output_location": "s3://eco.inquire.${customer.name}/${output-ts-dir}/silver/wifi_stat-ts-audit"
  }
}
