{
  "name": "subscriber",
  "input_location": "s3://eco.inquire.frontier/archive/subscriber-diff/2020/*/*",
  "input_file_pattern": "/subscriber-diff-*.json.gz",
  "primary_timestamp_column": "timestamp",
  "time_dim_columns": ["year","month","day"]
}