{
  "default_timezone": "UTC",
  "spark.sql.caseSensitive": true,
  "spark.sql.session.timeZone": "UTC",
  "spark.sql.files.ignoreCorruptFiles": "true",
  "warehouse_location": "s3://eco.inquire.${customer.name}/${warehouse-dir}/",
  "output_location": "s3://eco.inquire.${customer.name}/${output-dir}/gold/",
  "tmp_proc_folder": "spark_tmp_proc",
  "input_format": "parquet",
  "output_format": "parquet",
  "output_save_mode": "append",
  "save_options": {
    "mergeSchema": true
  },
  "partitions": ["ts_date"]
}