{
  "name": "client",
  "input_location": "s3://eco.inquire.${customer.name}/${input-dir}/silver/client",
  "input_file_pattern": "",
  "model": "com.commscope.eco.model.Generic",
  "output": {
    "transformations": [
      {
        "transformation": {
          "name": "groupBy",
          "args": {
            "columns": [
              "subscriber_id", "device_id", "active",
              "client_device_type", "client_manufacturer", "client_category",
              "interface_type", "zip", "city", "state", "country",
              "ts_day", "ts_month", "ts_year", "ts_date"
            ],
            "aggregate": ["device_id"],
            "functions": ["count"]
          }
        }
      },
      {
        "transformation": {
          "name": "renameColumns",
          "args": {
            "count(device_id)": "client_count"
          }
        }
      }
    ]
  }
}
