{
  "name": "client_bw_inform",
  "input_location": "s3://eco.inquire.${customer.name}/${warehouse-dir}-backfill/silver/element-ts",
  "input_file_pattern": "",
  "input_format": "parquet",
  "splitter": {
    "split_on" : [
      {"column_name": "device_manufacturer", "numeric": false}
    ],
    "order_by": "device_manufacturer",
    "audit_enabled" : true,
    "audit_output_location": "s3://eco.inquire.${customer.name}/${warehouse-dir}-backfill/gold/client-bw-audit"
  },
  "pipelines": [
    {
      "processors": [
        {
          "name": "clientInform",
          "transformers": [
            {
              "name": "selectColumns",
              "args":  [
                "device_id", "subscriber_id",
                "device_model", "device_manufacturer",
                "software_version", "hardware_version", "hnc_enable",
                "ts_date", "ts_year", "ts_month", "ts_day", "ts_hour", "ts", "ts_inform",
                "zip", "city", "state", "country",
                "uptime", "radio_clients", "wifi_clients","wifi_devices"
              ]
            },
            {
              "name": "model",
              "args": {
                "class": "com.commscope.eco.model.ClientBW",
                "base_columns": [
                  "device_id", "subscriber_id", "device_model", "device_manufacturer",
                  "software_version", "hardware_version", "hnc_enable",
                  "zip", "city", "state", "country", "uptime",
                  "ts_year", "ts_month", "ts_day", "ts","ts_date","ts_hour","ts_inform"
                ],
                "wifi_client_columns": "wifi_devices",
                "categorize-client": true
              }
            },
            {
              "name": "castColumns",
              "args": {"lastTransmitRate": "long"}
            },
            {
              "name": "caseFormat",
              "args": "snake"
            },
            {
              "name": "windowAgg",
              "args": {
                "window": {
                  "partitionBy": ["device_id", "radio", "mac_address"],
                  "orderBy": [
                    {"asc": "ts"}
                  ]
                },
                "function": {
                  "name": "lag",
                  "offset": 1,
                  "columns": ["bytes_received", "bytes_sent", "disassociations_count", "deauthentication_count"],
                  "output_suffix": "_prev",
                  "apply": {
                    "expression": "abs($$ - $$_prev)",
                    "output_suffix": "_current"
                  }
                }
              }
            },
            {
              "name": "dropColumns",
              "args": {
                "__root__": ["*_prev"]
              }
            }
          ],
          "sinks": [
            {
              "output_location": "s3://eco.inquire.${customer.name}/${warehouse-dir}-backfill/gold/client_bw_inform",
              "format": "parquet",
              "mode": "append",
              "partitions": ["ts_date"],
              "options": {}
            }
          ]
        },
        {
          "name": "clientBWDaily",
          "transformers": [
            {
              "name": "dropColumns",
              "args": {
                "__root__": ["bytes_received","bytes_sent","disassociations_count", "deauthentication_count"]
              }
            },
            {
              "name": "renameColumns",
              "args": {"*_current": ""}
            },
            {
              "name": "groupBy",
              "args": {
                "columns": [
                  "device_id", "subscriber_id",
                  "device_model", "device_manufacturer",
                  "software_version", "hardware_version", "hnc_enable",
                  "client_category", "client_device_type", "client_manufacturer",
                  "ts_date", "ts_year", "ts_month", "ts_day",
                  "zip", "city", "state", "country",
                  "radio", "mac_address"
                ],
                "aggregate": [
                  "bytes_received", "bytes_sent", "rssi",
                  "signal_strength", "baud_rate","last_transmit_rate",
                  "disassociations_count", "deauthentication_count"
                ],
                "stats": ["count","mean","stddev","min","max","sum"]
              }
            }
          ],
          "sinks": [
            {
              "output_location": "s3://eco.inquire.${customer.name}/${warehouse-dir}-backfill/gold/client_bw_daily",
              "format": "parquet",
              "mode": "append",
              "partitions": ["ts_date"],
              "options": {}
            },
            {
              "output_location": "s3://eco.inquire.${customer.name}/${warehouse-dir}-backfill/gold/csv/client_bw_backfill",
              "format": "csv",
              "mode": "append",
              "options": {"quoteAll": "true", "header":"false", "compression": "gzip"}
            }
          ]
        }
      ]
    }
  ]
}
