{
  "name": "wifi_client_inform",
  "input_location": "s3://eco.inquire.${customer.name}/${input-ts-dir}/silver/wifi_device-ts",
  "input_file_pattern": "",
  "input_format": "parquet",
  "pipelines": [
    {
      "processors": [
        {
          "name": "clientInform",
          "transformers": [
            {
              "name": "model",
              "args": {
                "class": "com.commscope.eco.model.ClientBW",
                "base_columns": [
                  "device_id", "subscriber_id", "serial_number",
                  "device_model", "device_manufacturer",
                  "software_version", "hardware_version", "hnc_enable",
                  "zip", "city", "state", "country", "uptime",
                  "ts_year", "ts_month", "ts_day", "ts","ts_date","ts_hour","ts_inform"
                ],
                "categorize-client": false
              }
            },
            {
              "name": "castColumns",
              "args": {"lastTransmitRate": "long"}
            },
            {
              "name": "caseFormat",
              "args": "snake"
            },
            {
              "name": "windowAgg",
              "args": {
                "window": {
                  "partitionBy": ["device_id", "radio", "mac_address"],
                  "orderBy": [
                    {"asc": "ts"}
                  ]
                },
                "function": {
                  "name": "lag",
                  "offset": 1,
                  "columns": ["bytes_received", "bytes_sent", "disassociations_count", "deauthentication_count"],
                  "output_suffix": "_prev",
                  "apply": {
                    "expression": "abs($$ - $$_prev)",
                    "output_suffix": "_current"
                  }
                }
              }
            },
            {
              "name": "dropColumns",
              "args": {
                "__root__": ["*_prev"]
              }
            }
          ],
          "sinks": [
            {
              "output_location": "s3://eco.inquire.${customer.name}/${output-ts-dir}/gold/wifi_client_inform",
              "format": "parquet",
              "mode": "append",
              "partitions": ["ts_date"],
              "options": {}
            }
          ]
        },
        {
          "name": "clientDaily",
          "transformers": [
            {
              "name": "dropColumns",
              "args": {
                "__root__": ["bytes_received","bytes_sent","disassociations_count", "deauthentication_count"]
              }
            },
            {
              "name": "renameColumns",
              "args": {"*_current": ""}
            },
            {
              "name": "groupBy",
              "args": {
                "columns": [
                  "device_id", "subscriber_id", "serial_number",
                  "device_model", "device_manufacturer",
                  "software_version", "hardware_version", "hnc_enable",
                  "ts_date", "ts_year", "ts_month", "ts_day",
                  "zip", "city", "state", "country",
                  "radio", "mac_address"
                ],
                "aggregate": [
                  "bytes_received", "bytes_sent", "rssi",
                  "signal_strength", "baud_rate","last_transmit_rate",
                  "disassociations_count", "deauthentication_count"
                ],
                "stats": ["count","mean","stddev","min","max","sum"]
              }
            },
            {
              "name": "joinDataFrame",
              "args": {
                "location":"s3://eco.inquire.frontier/warehouse/gold/client_population",
                "on": ["device_id","mac_address"],
                "how": "left"
              }
            }
          ],
          "sinks": [
            {
              "output_location": "s3://eco.inquire.${customer.name}/${output-ts-dir}/gold/wifi_client_daily",
              "format": "parquet",
              "mode": "append",
              "partitions": ["ts_date"],
              "options": {}
            },
            {
              "output_location": "s3://eco.inquire.${customer.name}/${warehouse-dir}/gold/csv/wifi_client_daily",
              "format": "csv",
              "mode": "append",
              "options": {"quoteAll": "true", "header":"false", "compression": "gzip"}
            }
          ]
        }
      ]
    }
  ]
}
