{
  "name": "device vacuum",
  "default_timezone": "UTC",
  "input_location": "s3://eco.inquire.${customer.name}/warehouse-wal/silver/device",
  "output_location": "s3://eco.inquire.${customer.name}/warehouse-wal/vacuumed/silver/device",
  "input_format": "parquet",
  "output_format": "parquet",
  "partitions": ["ts_date"],
  "window": {
    "partitionBy": [
      "device_id", "subscriber_id", "serial_number",
      "hardware_version", "software_version", "first_inform"
    ],
    "orderBy": [
      {"desc": "ts"}
    ]
  }
}