{
  "Comment": "ECO Inquire EMR Workflow Implementation Using AWS Step Functions",
  "StartAt": "Create EMR cluster",
  "States": {
    "Create EMR cluster": {
      "Type": "Task",
      "Resource": "arn:aws:states:::elasticmapreduce:createCluster.sync",
      "Parameters": {
        "Name": "eco.inquire.sf.emr.cluster.${customer.name}",
        "VisibleToAllUsers": true,
        "ReleaseLabel": "emr-5.30.1",
        "Applications": [
          {
            "Name": "Hadoop"
          },
          {
            "Name": "Spark"
          },
          {
            "Name": "Hive"
          },
          {
            "Name": "Livy"
          }
        ],
        "JobFlowRole": "Role-EC2-S3-EcoInquire-3",
        "ServiceRole": "EMR_DefaultRole",
        "LogUri": "s3n://aws-logs-097289183747-us-east-1/elasticmapreduce/stepfunctions/",
        "BootstrapActions": [
          {
            "Name": "Install inquire dependencies",
            "ScriptBootstrapAction": {
              "Path": "s3://eco.inquire.${customer.name}/install_inquire_dependencies.sh"
            }
          }
        ],
        "Tags": [
          {
            "Key": "Stage",
            "Value": "dev"
          },
          {
            "Key": "Name",
            "Value": "eco.inquire.deltaLake"
          }
        ],
        "Configurations": [
          {
            "Classification": "yarn-env",
            "Properties": {},
            "Configurations": [
              {
                "Classification": "export",
                "Properties": {
                  "PYSPARK_PYTHON": "/usr/bin/python3"
                }
              }
            ]
          },
          {
            "Classification": "spark-defaults",
            "Properties": {
              "spark.driver.memory": "12g",
              "spark.driver.cores": "2",
              "spark.executor.cores": "2",
              "yarn.nodemanager.pmem-check-enabled": "false",
              "spark.executor.memory": "12g",
              "yarn.nodemanager.vmem-check-enabled": "false",
              "spark.sql.caseSensitive": "true",
              "spark.sql.session.timeZone": "UTC",
              "spark.default.parallelism": "24",
              "spark.executor.memoryOverhead": "2g",
              "spark.executor.extraJavaOptions": "-XX:+UseG1GC -XX:+UnlockDiagnosticVMOptions -XX:+G1SummarizeConcMark -XX:InitiatingHeapOccupancyPercent=35 -verbose:gc -XX:+PrintGCDetails -XX:+PrintGCDateStamps -XX:OnOutOfMemoryError='kill -9 %p'",
              "spark.executor.instances": "24",
              "spark.dynamicAllocation.enabled": "false",
              "spark.driver.extraJavaOptions": "-XX:+UseG1GC -XX:+UnlockDiagnosticVMOptions -XX:+G1SummarizeConcMark -XX:InitiatingHeapOccupancyPercent=35 -verbose:gc -XX:+PrintGCDetails -XX:+PrintGCDateStamps -XX:OnOutOfMemoryError='kill -9 %p'"
            }
          }
        ],
        "Instances": {
          "Ec2KeyName": "${key.name}",
          "EmrManagedMasterSecurityGroup": "${security.group}",
          "EmrManagedSlaveSecurityGroup": "${security.group}",
          "KeepJobFlowAliveWhenNoSteps": true,
          "TerminationProtected": false,
          "InstanceFleets": [
            {
              "Name": "MasterFleet",
              "InstanceFleetType": "MASTER",
              "TargetOnDemandCapacity": 1,
              "InstanceTypeConfigs": [
                {
                  "InstanceType": "m5.xlarge"
                }
              ]
            },
            {
              "Name": "CoreFleet",
              "InstanceFleetType": "CORE",
              "TargetOnDemandCapacity": 2,
              "InstanceTypeConfigs": [
                {
                  "InstanceType": "m5d.2xlarge"
                }
              ]
            },
            {
              "Name": "TaskFleet",
              "InstanceFleetType": "TASK",
              "TargetOnDemandCapacity": 16,
              "TargetSpotCapacity": 16,
              "InstanceTypeConfigs": [
                {
                  "InstanceType": "r5d.2xlarge",
                  "WeightedCapacity": 16
                },
                {
                  "InstanceType": "m5d.2xlarge",
                  "WeightedCapacity": 16
                }
              ]
            }
          ]
        }
      },
      "Retry": [
        {
          "ErrorEquals": [
            "States.ALL"
          ],
          "IntervalSeconds": 1,
          "MaxAttempts": 1,
          "BackoffRate": 2.0
        }
      ],
      "Catch": [
        {
          "ErrorEquals": [
            "States.ALL"
          ],
          "ResultPath": "$.error-info",
          "Next": "Terminate EMR Cluster"
        }
      ],
      "ResultPath": "$.cluster",
      "Next": "S3 Move All Stage incoming to processing"
    },
    "S3 Move All Stage incoming to processing": {
      "Type": "Task",
      "Resource": "arn:aws:states:::elasticmapreduce:addStep.sync",
      "Parameters": {
        "ClusterId.$": "$.cluster.ClusterId",
        "Step": {
          "Name": "Move All Stage incoming to processing",
          "ActionOnFailure": "CONTINUE",
          "HadoopJarStep": {
            "Jar": "command-runner.jar",
            "Args": [
              "aws","s3","mv",
              "s3://eco.inquire.${customer.name}/data/deltalake-stage/incoming/",
              "s3://eco.inquire.${customer.name}/data/deltalake-stage/processing/",
              "--recursive",
              "--exclude","*",
              "--include","*.json.gz"
            ]
          }
        }
      },
      "Retry": [
        {
          "ErrorEquals": [
            "States.ALL"
          ],
          "IntervalSeconds": 1,
          "MaxAttempts": 0,
          "BackoffRate": 2.0
        }
      ],
      "Catch": [
        {
          "ErrorEquals": [
            "States.ALL"
          ],
          "ResultPath": "$.error-info",
          "Next": "Terminate EMR Cluster"
        }
      ],
      "ResultPath": "$.result",
      "Next": "Find Stage Subscribers Data"
    },
    "Find Stage Subscribers Data": {
      "Type": "Task",
      "Parameters": {
        "bucket": "eco.inquire.${customer.name}",
        "path": "data/deltalake-stage/processing/subscriber-"
      },
      "Resource": "arn:aws:lambda:us-east-1:097289183747:function:CheckS3DataFun",
      "Catch": [
        {
          "ErrorEquals": [
            "States.ALL"
          ],
          "ResultPath": "$.error-info",
          "Next": "ErrorReporting NoStageSubscriberData"
        }
      ],
      "ResultPath": "$.result",
      "Next": "Run Bronze Subscriber"
    },
    "ErrorReporting NoStageSubscriberData": {
      "Type": "Task",
      "InputPath": "$",
      "Resource": "arn:aws:lambda:us-east-1:097289183747:function:AlarmMessageHandler",
      "ResultPath": "$.error-info",
      "Next": "Find Stage Dailyparams Data"
    },
    "Run Bronze Subscriber": {
      "Type": "Task",
      "Resource": "arn:aws:states:::elasticmapreduce:addStep.sync",
      "Parameters": {
        "ClusterId.$": "$.cluster.ClusterId",
        "Step": {
          "Name": "Bronze Subscriber",
          "ActionOnFailure": "CONTINUE",
          "HadoopJarStep": {
            "Jar": "command-runner.jar",
            "Args": [
              "spark-submit",
              "--deploy-mode",
              "cluster",
              "--class",
              "com.commscope.eco.Inquire",
              "--jars",
              "s3://eco.inquire.${customer.name}/spark/inquire-32/model-silver-jar-with-dependencies.jar,s3://eco.inquire.${customer.name}/spark/inquire-32/spark-udfs-jar-with-dependencies.jar",
              "--files",
              "s3://eco.inquire.${customer.name}/spark/inquire-32/log4j.properties,s3://eco.inquire.${customer.name}/spark/inquire-32/bronze/application-bronze.json,s3://eco.inquire.${customer.name}/spark/inquire-32/bronze/subscriber-bronze.json",
              "--driver-java-options",
              "-Dlog4j.configuration=log4j.properties",
              "--driver-java-options",
              "-Dconfig.resource=application-bronze.json",
              "--driver-java-options",
              "-Dconfig.resource=subscriber-bronze.json",
              "s3://eco.inquire.${customer.name}/spark/inquire-32/data-processor-jar-with-dependencies.jar",
              "application-bronze.json",
              "subscriber-bronze.json"
            ]
          }
        }
      },
      "Retry": [
        {
          "ErrorEquals": [
            "States.ALL"
          ],
          "IntervalSeconds": 1,
          "MaxAttempts": 0,
          "BackoffRate": 2.0
        }
      ],
      "Catch": [
        {
          "ErrorEquals": [
            "States.ALL"
          ],
          "ResultPath": "$.error-info",
          "Next": "ErrorReporting Bronze Subscriber"
        }
      ],
      "ResultPath": "$.result",
      "Next": "S3 Move Stage Subscribers to Processed"
    },
    "ErrorReporting Bronze Subscriber": {
      "Type": "Task",
      "InputPath": "$",
      "Resource": "arn:aws:lambda:us-east-1:097289183747:function:AlarmMessageHandler",
      "ResultPath": "$.result",
      "Next": "S3 Move Stage Subscribers to Failed"
    },
    "S3 Move Stage Subscribers to Failed": {
      "Type": "Task",
      "Resource": "arn:aws:states:::elasticmapreduce:addStep.sync",
      "Parameters": {
        "ClusterId.$": "$.cluster.ClusterId",
        "Step": {
          "Name": "Move Stage Subscribers to Failed",
          "ActionOnFailure": "CONTINUE",
          "HadoopJarStep": {
            "Jar": "command-runner.jar",
            "Args": [
              "aws","s3","mv",
              "s3://eco.inquire.${customer.name}/data/deltalake-stage/processing/",
              "s3://eco.inquire.${customer.name}/data/deltalake-stage/failed/subscriber/",
              "--recursive",
              "--exclude","*",
              "--include","subscriber-*.json.gz"
            ]
          }
        }
      },
      "Retry": [
        {
          "ErrorEquals": [
            "States.ALL"
          ],
          "IntervalSeconds": 1,
          "MaxAttempts": 0,
          "BackoffRate": 2.0
        }
      ],
      "Catch": [
        {
          "ErrorEquals": [
            "States.ALL"
          ],
          "ResultPath": "$.error-info",
          "Next": "Find Stage Dailyparams Data"
        }
      ],
      "ResultPath": "$.result",
      "Next": "Find Stage Dailyparams Data"
    },
    "S3 Move Stage Subscribers to Processed": {
      "Type": "Task",
      "Resource": "arn:aws:states:::elasticmapreduce:addStep.sync",
      "Parameters": {
        "ClusterId.$": "$.cluster.ClusterId",
        "Step": {
          "Name": "Move Stage Subscribers to Processed",
          "ActionOnFailure": "CONTINUE",
          "HadoopJarStep": {
            "Jar": "command-runner.jar",
            "Args": [
              "aws","s3","mv",
              "s3://eco.inquire.${customer.name}/data/deltalake-stage/processing/",
              "s3://eco.inquire.${customer.name}/data/deltalake-stage/processed/subscriber",
              "--recursive",
              "--exclude","*",
              "--include","subscriber-*.json.gz"
            ]
          }
        }
      },
      "Retry": [
        {
          "ErrorEquals": [
            "States.ALL"
          ],
          "IntervalSeconds": 1,
          "MaxAttempts": 0,
          "BackoffRate": 2.0
        }
      ],
      "Catch": [
        {
          "ErrorEquals": [
            "States.ALL"
          ],
          "ResultPath": "$.error-info",
          "Next": "Find Stage Dailyparams Data"
        }
      ],
      "ResultPath": "$.result",
      "Next": "Find Stage Dailyparams Data"
    },
    "Find Stage Dailyparams Data": {
      "Type": "Task",
      "Parameters": {
        "bucket": "eco.inquire.${customer.name}",
        "path": "data/deltalake-stage/processing/dailyparams-"
      },
      "Resource": "arn:aws:lambda:us-east-1:097289183747:function:CheckS3DataFun",
      "Catch": [
        {
          "ErrorEquals": [
            "States.ALL"
          ],
          "ResultPath": "$.error-info",
          "Next": "ErrorReporting NoStageDailyparamsData"
        }
      ],
      "ResultPath": "$.result",
      "Next": "Run Bronze Dailyparams"
    },
    "ErrorReporting NoStageDailyparamsData": {
      "Type": "Task",
      "InputPath": "$",
      "Resource": "arn:aws:lambda:us-east-1:097289183747:function:AlarmMessageHandler",
      "ResultPath": "$.error-info",
      "Next": "Find Stage ElementEvent Data"
    },
    "Run Bronze Dailyparams": {
      "Type": "Task",
      "Resource": "arn:aws:states:::elasticmapreduce:addStep.sync",
      "Parameters": {
        "ClusterId.$": "$.cluster.ClusterId",
        "Step": {
          "Name": "Bronze Dailyparams",
          "ActionOnFailure": "CONTINUE",
          "HadoopJarStep": {
            "Jar": "command-runner.jar",
            "Args": [
              "spark-submit",
              "--deploy-mode",
              "cluster",
              "--class",
              "com.commscope.eco.Inquire",
              "--jars",
              "s3://eco.inquire.${customer.name}/spark/inquire-32/model-silver-jar-with-dependencies.jar,s3://eco.inquire.${customer.name}/spark/inquire-32/spark-udfs-jar-with-dependencies.jar",
              "--files",
              "s3://eco.inquire.${customer.name}/spark/inquire-32/log4j.properties,s3://eco.inquire.${customer.name}/spark/inquire-32/bronze/application-bronze.json,s3://eco.inquire.${customer.name}/spark/inquire-32/bronze/dailyparams-bronze.json",
              "--driver-java-options",
              "-Dlog4j.configuration=log4j.properties",
              "--driver-java-options",
              "-Dconfig.resource=application-bronze.json",
              "--driver-java-options",
              "-Dconfig.resource=dailyparams-bronze.json",
              "s3://eco.inquire.${customer.name}/spark/inquire-32/data-processor-jar-with-dependencies.jar",
              "application-bronze.json",
              "dailyparams-bronze.json"
            ]
          }
        }
      },
      "Retry": [
        {
          "ErrorEquals": [
            "States.ALL"
          ],
          "IntervalSeconds": 1,
          "MaxAttempts": 0,
          "BackoffRate": 2.0
        }
      ],
      "Catch": [
        {
          "ErrorEquals": [
            "States.ALL"
          ],
          "ResultPath": "$.error-info",
          "Next": "ErrorReporting Bronze Dailyparams"
        }
      ],
      "ResultPath": "$.result",
      "Next": "S3 Move Stage Dailyparams to Processed"
    },
    "ErrorReporting Bronze Dailyparams": {
      "Type": "Task",
      "InputPath": "$",
      "Resource": "arn:aws:lambda:us-east-1:097289183747:function:AlarmMessageHandler",
      "ResultPath": "$.result",
      "Next": "S3 Move Stage Dailyparams to Failed"
    },
    "S3 Move Stage Dailyparams to Failed": {
      "Type": "Task",
      "Resource": "arn:aws:states:::elasticmapreduce:addStep.sync",
      "Parameters": {
        "ClusterId.$": "$.cluster.ClusterId",
        "Step": {
          "Name": "Move Stage Dailyparams to Failed",
          "ActionOnFailure": "CONTINUE",
          "HadoopJarStep": {
            "Jar": "command-runner.jar",
            "Args": [
              "aws","s3","mv",
              "s3://eco.inquire.${customer.name}/data/deltalake-stage/processing/",
              "s3://eco.inquire.${customer.name}/data/deltalake-stage/failed/dailyparams",
              "--recursive",
              "--exclude","*",
              "--include","dailyparams-*.json.gz"
            ]
          }
        }
      },
      "Retry": [
        {
          "ErrorEquals": [
            "States.ALL"
          ],
          "IntervalSeconds": 1,
          "MaxAttempts": 0,
          "BackoffRate": 2.0
        }
      ],
      "Catch": [
        {
          "ErrorEquals": [
            "States.ALL"
          ],
          "ResultPath": "$.error-info",
          "Next": "Find Stage ElementEvent Data"
        }
      ],
      "ResultPath": "$.result",
      "Next": "Find Stage ElementEvent Data"
    },
    "S3 Move Stage Dailyparams to Processed": {
      "Type": "Task",
      "Resource": "arn:aws:states:::elasticmapreduce:addStep.sync",
      "Parameters": {
        "ClusterId.$": "$.cluster.ClusterId",
        "Step": {
          "Name": "Move Stage Dailyparams to Processed",
          "ActionOnFailure": "CONTINUE",
          "HadoopJarStep": {
            "Jar": "command-runner.jar",
            "Args": [
              "aws","s3","mv",
              "s3://eco.inquire.${customer.name}/data/deltalake-stage/processing/",
              "s3://eco.inquire.${customer.name}/data/deltalake-stage/processed/dailyparams",
              "--recursive",
              "--exclude","*",
              "--include","dailyparams-*.json.gz"
            ]
          }
        }
      },
      "Retry": [
        {
          "ErrorEquals": [
            "States.ALL"
          ],
          "IntervalSeconds": 1,
          "MaxAttempts": 0,
          "BackoffRate": 2.0
        }
      ],
      "Catch": [
        {
          "ErrorEquals": [
            "States.ALL"
          ],
          "ResultPath": "$.error-info",
          "Next": "Find Stage ElementEvent Data"
        }
      ],
      "ResultPath": "$.result",
      "Next": "Find Stage ElementEvent Data"
    },
    "Find Stage ElementEvent Data": {
      "Type": "Task",
      "Parameters": {
        "bucket": "eco.inquire.${customer.name}",
        "path": "data/deltalake-stage/processing/element-event-"
      },
      "Resource": "arn:aws:lambda:us-east-1:097289183747:function:CheckS3DataFun",
      "Catch": [
        {
          "ErrorEquals": [
            "States.ALL"
          ],
          "ResultPath": "$.error-info",
          "Next": "ErrorReporting NoStageElementEventData"
        }
      ],
      "ResultPath": "$.result",
      "Next": "Run Bronze ElementEvent"
    },
    "ErrorReporting NoStageElementEventData": {
      "Type": "Task",
      "InputPath": "$",
      "Resource": "arn:aws:lambda:us-east-1:097289183747:function:AlarmMessageHandler",
      "ResultPath": "$.error-info",
      "Next": "Find Stage HostTable Data"
    },
    "Run Bronze ElementEvent": {
      "Type": "Task",
      "Resource": "arn:aws:states:::elasticmapreduce:addStep.sync",
      "Parameters": {
        "ClusterId.$": "$.cluster.ClusterId",
        "Step": {
          "Name": "Bronze ElementEvent",
          "ActionOnFailure": "CONTINUE",
          "HadoopJarStep": {
            "Jar": "command-runner.jar",
            "Args": [
              "spark-submit",
              "--deploy-mode",
              "cluster",
              "--class",
              "com.commscope.eco.Inquire",
              "--jars",
              "s3://eco.inquire.${customer.name}/spark/inquire-32/model-silver-jar-with-dependencies.jar,s3://eco.inquire.${customer.name}/spark/inquire-32/spark-udfs-jar-with-dependencies.jar",
              "--files",
              "s3://eco.inquire.${customer.name}/spark/inquire-32/log4j.properties,s3://eco.inquire.${customer.name}/spark/inquire-32/bronze/application-bronze.json,s3://eco.inquire.${customer.name}/spark/inquire-32/bronze/element-event-bronze.json",
              "--driver-java-options",
              "-Dlog4j.configuration=log4j.properties",
              "--driver-java-options",
              "-Dconfig.resource=application-bronze.json",
              "--driver-java-options",
              "-Dconfig.resource=element-event-bronze.json",
              "s3://eco.inquire.${customer.name}/spark/inquire-32/data-processor-jar-with-dependencies.jar",
              "application-bronze.json",
              "element-event-bronze.json"
            ]
          }
        }
      },
      "Retry": [
        {
          "ErrorEquals": [
            "States.ALL"
          ],
          "IntervalSeconds": 1,
          "MaxAttempts": 0,
          "BackoffRate": 2.0
        }
      ],
      "Catch": [
        {
          "ErrorEquals": [
            "States.ALL"
          ],
          "ResultPath": "$.error-info",
          "Next": "ErrorReporting Bronze ElementEvent"
        }
      ],
      "ResultPath": "$.result",
      "Next": "S3 Move Stage ElementEvent to Processed"
    },
    "ErrorReporting Bronze ElementEvent": {
      "Type": "Task",
      "InputPath": "$",
      "Resource": "arn:aws:lambda:us-east-1:097289183747:function:AlarmMessageHandler",
      "ResultPath": "$.result",
      "Next": "S3 Move Stage ElementEvent to Failed"
    },
    "S3 Move Stage ElementEvent to Failed": {
      "Type": "Task",
      "Resource": "arn:aws:states:::elasticmapreduce:addStep.sync",
      "Parameters": {
        "ClusterId.$": "$.cluster.ClusterId",
        "Step": {
          "Name": "Move Stage ElementEvent to Failed",
          "ActionOnFailure": "CONTINUE",
          "HadoopJarStep": {
            "Jar": "command-runner.jar",
            "Args": [
              "aws","s3","mv",
              "s3://eco.inquire.${customer.name}/data/deltalake-stage/processing/",
              "s3://eco.inquire.${customer.name}/data/deltalake-stage/failed/element-event/",
              "--recursive",
              "--exclude","*",
              "--include","element-event-*.json.gz"
            ]
          }
        }
      },
      "Retry": [
        {
          "ErrorEquals": [
            "States.ALL"
          ],
          "IntervalSeconds": 1,
          "MaxAttempts": 0,
          "BackoffRate": 2.0
        }
      ],
      "Catch": [
        {
          "ErrorEquals": [
            "States.ALL"
          ],
          "ResultPath": "$.error-info",
          "Next": "Find Stage HostTable Data"
        }
      ],
      "ResultPath": "$.result",
      "Next": "Find Stage HostTable Data"
    },
    "S3 Move Stage ElementEvent to Processed": {
      "Type": "Task",
      "Resource": "arn:aws:states:::elasticmapreduce:addStep.sync",
      "Parameters": {
        "ClusterId.$": "$.cluster.ClusterId",
        "Step": {
          "Name": "Move Stage ElementEvent to Processed",
          "ActionOnFailure": "CONTINUE",
          "HadoopJarStep": {
            "Jar": "command-runner.jar",
            "Args": [
              "aws","s3","mv",
              "s3://eco.inquire.${customer.name}/data/deltalake-stage/processing/",
              "s3://eco.inquire.${customer.name}/data/deltalake-stage/processed/element-event",
              "--recursive",
              "--exclude","*",
              "--include","element-event-*.json.gz"
            ]
          }
        }
      },
      "Retry": [
        {
          "ErrorEquals": [
            "States.ALL"
          ],
          "IntervalSeconds": 1,
          "MaxAttempts": 0,
          "BackoffRate": 2.0
        }
      ],
      "Catch": [
        {
          "ErrorEquals": [
            "States.ALL"
          ],
          "ResultPath": "$.error-info",
          "Next": "Find Stage HostTable Data"
        }
      ],
      "ResultPath": "$.result",
      "Next": "Find Stage HostTable Data"
    },
    "Find Stage HostTable Data": {
      "Type": "Task",
      "Parameters": {
        "bucket": "eco.inquire.${customer.name}",
        "path": "data/deltalake-stage/processing/host-table-"
      },
      "Resource": "arn:aws:lambda:us-east-1:097289183747:function:CheckS3DataFun",
      "Catch": [
        {
          "ErrorEquals": [
            "States.ALL"
          ],
          "ResultPath": "$.error-info",
          "Next": "ErrorReporting NoStageHostTableData"
        }
      ],
      "ResultPath": "$.result",
      "Next": "Run Bronze HostTable"
    },
    "ErrorReporting NoStageHostTableData": {
      "Type": "Task",
      "InputPath": "$",
      "Resource": "arn:aws:lambda:us-east-1:097289183747:function:AlarmMessageHandler",
      "ResultPath": "$.error-info",
      "Next": "Find Stage Firmware Data"
    },
    "Run Bronze HostTable": {
      "Type": "Task",
      "Resource": "arn:aws:states:::elasticmapreduce:addStep.sync",
      "Parameters": {
        "ClusterId.$": "$.cluster.ClusterId",
        "Step": {
          "Name": "Bronze HostTable",
          "ActionOnFailure": "CONTINUE",
          "HadoopJarStep": {
            "Jar": "command-runner.jar",
            "Args": [
              "spark-submit",
              "--deploy-mode",
              "cluster",
              "--class",
              "com.commscope.eco.Inquire",
              "--jars",
              "s3://eco.inquire.${customer.name}/spark/inquire-32/model-silver-jar-with-dependencies.jar,s3://eco.inquire.${customer.name}/spark/inquire-32/spark-udfs-jar-with-dependencies.jar",
              "--files",
              "s3://eco.inquire.${customer.name}/spark/inquire-32/log4j.properties,s3://eco.inquire.${customer.name}/spark/inquire-32/bronze/application-bronze.json,s3://eco.inquire.${customer.name}/spark/inquire-32/bronze/host-table-bronze.json",
              "--driver-java-options",
              "-Dlog4j.configuration=log4j.properties",
              "--driver-java-options",
              "-Dconfig.resource=application-bronze.json",
              "--driver-java-options",
              "-Dconfig.resource=host-table-bronze.json",
              "s3://eco.inquire.${customer.name}/spark/inquire-32/data-processor-jar-with-dependencies.jar",
              "application-bronze.json",
              "host-table-bronze.json"
            ]
          }
        }
      },
      "Retry": [
        {
          "ErrorEquals": [
            "States.ALL"
          ],
          "IntervalSeconds": 1,
          "MaxAttempts": 0,
          "BackoffRate": 2.0
        }
      ],
      "Catch": [
        {
          "ErrorEquals": [
            "States.ALL"
          ],
          "ResultPath": "$.error-info",
          "Next": "ErrorReporting Bronze HostTable"
        }
      ],
      "ResultPath": "$.result",
      "Next": "S3 Move Stage HostTable to Processed"
    },
    "ErrorReporting Bronze HostTable": {
      "Type": "Task",
      "InputPath": "$",
      "Resource": "arn:aws:lambda:us-east-1:097289183747:function:AlarmMessageHandler",
      "ResultPath": "$.result",
      "Next": "S3 Move Stage HostTable to Failed"
    },
    "S3 Move Stage HostTable to Failed": {
      "Type": "Task",
      "Resource": "arn:aws:states:::elasticmapreduce:addStep.sync",
      "Parameters": {
        "ClusterId.$": "$.cluster.ClusterId",
        "Step": {
          "Name": "Move Stage HostTable to Failed",
          "ActionOnFailure": "CONTINUE",
          "HadoopJarStep": {
            "Jar": "command-runner.jar",
            "Args": [
              "aws","s3","mv",
              "s3://eco.inquire.${customer.name}/data/deltalake-stage/processing/",
              "s3://eco.inquire.${customer.name}/data/deltalake-stage/failed/host-table/",
              "--recursive",
              "--exclude","*",
              "--include","host-table-*.json.gz"
            ]
          }
        }
      },
      "Retry": [
        {
          "ErrorEquals": [
            "States.ALL"
          ],
          "IntervalSeconds": 1,
          "MaxAttempts": 0,
          "BackoffRate": 2.0
        }
      ],
      "Catch": [
        {
          "ErrorEquals": [
            "States.ALL"
          ],
          "ResultPath": "$.error-info",
          "Next": "Find Stage Firmware Data"
        }
      ],
      "ResultPath": "$.result",
      "Next": "Find Stage Firmware Data"
    },
    "S3 Move Stage HostTable to Processed": {
      "Type": "Task",
      "Resource": "arn:aws:states:::elasticmapreduce:addStep.sync",
      "Parameters": {
        "ClusterId.$": "$.cluster.ClusterId",
        "Step": {
          "Name": "Move Stage HostTable to Processed",
          "ActionOnFailure": "CONTINUE",
          "HadoopJarStep": {
            "Jar": "command-runner.jar",
            "Args": [
              "aws","s3","mv",
              "s3://eco.inquire.${customer.name}/data/deltalake-stage/processing/",
              "s3://eco.inquire.${customer.name}/data/deltalake-stage/processed/host-table/",
              "--recursive",
              "--exclude","*",
              "--include","host-table-*.json.gz"
            ]
          }
        }
      },
      "Retry": [
        {
          "ErrorEquals": [
            "States.ALL"
          ],
          "IntervalSeconds": 1,
          "MaxAttempts": 0,
          "BackoffRate": 2.0
        }
      ],
      "Catch": [
        {
          "ErrorEquals": [
            "States.ALL"
          ],
          "ResultPath": "$.error-info",
          "Next": "Find Stage Firmware Data"
        }
      ],
      "ResultPath": "$.result",
      "Next": "Find Stage Firmware Data"
    },
    "Find Stage Firmware Data": {
      "Type": "Task",
      "Parameters": {
        "bucket": "eco.inquire.${customer.name}",
        "path": "data/deltalake-stage/processing/firmware-"
      },
      "Resource": "arn:aws:lambda:us-east-1:097289183747:function:CheckS3DataFun",
      "Catch": [
        {
          "ErrorEquals": [
            "States.ALL"
          ],
          "ResultPath": "$.error-info",
          "Next": "ErrorReporting NoStageFirmwareData"
        }
      ],
      "ResultPath": "$.result",
      "Next": "Run Bronze Firmware"
    },
    "ErrorReporting NoStageFirmwareData": {
      "Type": "Task",
      "InputPath": "$",
      "Resource": "arn:aws:lambda:us-east-1:097289183747:function:AlarmMessageHandler",
      "ResultPath": "$.error-info",
      "Next": "Find Stage ElementTs Data"
    },
    "Run Bronze Firmware": {
      "Type": "Task",
      "Resource": "arn:aws:states:::elasticmapreduce:addStep.sync",
      "Parameters": {
        "ClusterId.$": "$.cluster.ClusterId",
        "Step": {
          "Name": "Bronze Firmware",
          "ActionOnFailure": "CONTINUE",
          "HadoopJarStep": {
            "Jar": "command-runner.jar",
            "Args": [
              "spark-submit",
              "--deploy-mode",
              "cluster",
              "--class",
              "com.commscope.eco.Inquire",
              "--jars",
              "s3://eco.inquire.${customer.name}/spark/inquire-32/model-silver-jar-with-dependencies.jar,s3://eco.inquire.${customer.name}/spark/inquire-32/spark-udfs-jar-with-dependencies.jar",
              "--files",
              "s3://eco.inquire.${customer.name}/spark/inquire-32/log4j.properties,s3://eco.inquire.${customer.name}/spark/inquire-32/bronze/application-bronze.json,s3://eco.inquire.${customer.name}/spark/inquire-32/bronze/firmware-bronze.json",
              "--driver-java-options",
              "-Dlog4j.configuration=log4j.properties",
              "--driver-java-options",
              "-Dconfig.resource=application-bronze.json",
              "--driver-java-options",
              "-Dconfig.resource=firmware-bronze.json",
              "s3://eco.inquire.${customer.name}/spark/inquire-32/data-processor-jar-with-dependencies.jar",
              "application-bronze.json",
              "firmware-bronze.json"
            ]
          }
        }
      },
      "Retry": [
        {
          "ErrorEquals": [
            "States.ALL"
          ],
          "IntervalSeconds": 1,
          "MaxAttempts": 0,
          "BackoffRate": 2.0
        }
      ],
      "Catch": [
        {
          "ErrorEquals": [
            "States.ALL"
          ],
          "ResultPath": "$.error-info",
          "Next": "ErrorReporting Bronze Firmware"
        }
      ],
      "ResultPath": "$.result",
      "Next": "S3 Move Stage Firmware to Processed"
    },
    "ErrorReporting Bronze Firmware": {
      "Type": "Task",
      "InputPath": "$",
      "Resource": "arn:aws:lambda:us-east-1:097289183747:function:AlarmMessageHandler",
      "ResultPath": "$.result",
      "Next": "S3 Move Stage Firmware to Failed"
    },
    "S3 Move Stage Firmware to Failed": {
      "Type": "Task",
      "Resource": "arn:aws:states:::elasticmapreduce:addStep.sync",
      "Parameters": {
        "ClusterId.$": "$.cluster.ClusterId",
        "Step": {
          "Name": "Move Stage Firmware to Failed",
          "ActionOnFailure": "CONTINUE",
          "HadoopJarStep": {
            "Jar": "command-runner.jar",
            "Args": [
              "aws","s3","mv",
              "s3://eco.inquire.${customer.name}/data/deltalake-stage/processing/",
              "s3://eco.inquire.${customer.name}/data/deltalake-stage/failed/firmware/",
              "--recursive",
              "--exclude","*",
              "--include","firmware-*.json.gz"
            ]
          }
        }
      },
      "Retry": [
        {
          "ErrorEquals": [
            "States.ALL"
          ],
          "IntervalSeconds": 1,
          "MaxAttempts": 0,
          "BackoffRate": 2.0
        }
      ],
      "Catch": [
        {
          "ErrorEquals": [
            "States.ALL"
          ],
          "ResultPath": "$.error-info",
          "Next": "Find Stage ElementTs Data"
        }
      ],
      "ResultPath": "$.result",
      "Next": "Find Stage ElementTs Data"
    },
    "S3 Move Stage Firmware to Processed": {
      "Type": "Task",
      "Resource": "arn:aws:states:::elasticmapreduce:addStep.sync",
      "Parameters": {
        "ClusterId.$": "$.cluster.ClusterId",
        "Step": {
          "Name": "Move Stage Firmware to Processed",
          "ActionOnFailure": "CONTINUE",
          "HadoopJarStep": {
            "Jar": "command-runner.jar",
            "Args": [
              "aws","s3","mv",
              "s3://eco.inquire.${customer.name}/data/deltalake-stage/processing/",
              "s3://eco.inquire.${customer.name}/data/deltalake-stage/processed/firmware/",
              "--recursive",
              "--exclude","*",
              "--include","firmware-*.json.gz"
            ]
          }
        }
      },
      "Retry": [
        {
          "ErrorEquals": [
            "States.ALL"
          ],
          "IntervalSeconds": 1,
          "MaxAttempts": 0,
          "BackoffRate": 2.0
        }
      ],
      "Catch": [
        {
          "ErrorEquals": [
            "States.ALL"
          ],
          "ResultPath": "$.error-info",
          "Next": "Find Stage ElementTs Data"
        }
      ],
      "ResultPath": "$.result",
      "Next": "Find Stage ElementTs Data"
    },
    "Find Stage ElementTs Data": {
      "Type": "Task",
      "Parameters": {
        "bucket": "eco.inquire.${customer.name}",
        "path": "data/deltalake-stage/processing/element-ts-"
      },
      "Resource": "arn:aws:lambda:us-east-1:097289183747:function:CheckS3DataFun",
      "Catch": [
        {
          "ErrorEquals": [
            "States.ALL"
          ],
          "ResultPath": "$.error-info",
          "Next": "ErrorReporting NoStageElementTsData"
        }
      ],
      "ResultPath": "$.result",
      "Next": "Run Bronze ElementTs"
    },
    "ErrorReporting NoStageElementTsData": {
      "Type": "Task",
      "InputPath": "$",
      "Resource": "arn:aws:lambda:us-east-1:097289183747:function:AlarmMessageHandler",
      "ResultPath": "$.error-info",
      "Next": "Run Silver Subscribers"
    },
    "Run Bronze ElementTs": {
      "Type": "Task",
      "Resource": "arn:aws:states:::elasticmapreduce:addStep.sync",
      "Parameters": {
        "ClusterId.$": "$.cluster.ClusterId",
        "Step": {
          "Name": "Bronze ElementTs",
          "ActionOnFailure": "CONTINUE",
          "HadoopJarStep": {
            "Jar": "command-runner.jar",
            "Args": [
              "spark-submit",
              "--deploy-mode",
              "cluster",
              "--class",
              "com.commscope.eco.Inquire",
              "--jars",
              "s3://eco.inquire.${customer.name}/spark/inquire-32/model-silver-jar-with-dependencies.jar,s3://eco.inquire.${customer.name}/spark/inquire-32/spark-udfs-jar-with-dependencies.jar",
              "--files",
              "s3://eco.inquire.${customer.name}/spark/inquire-32/log4j.properties,s3://eco.inquire.${customer.name}/spark/inquire-32/bronze/application-bronze.json,s3://eco.inquire.${customer.name}/spark/inquire-32/bronze/element-ts-bronze.json",
              "--driver-java-options",
              "-Dlog4j.configuration=log4j.properties",
              "--driver-java-options",
              "-Dconfig.resource=application-bronze.json",
              "--driver-java-options",
              "-Dconfig.resource=element-ts-bronze.json",
              "s3://eco.inquire.${customer.name}/spark/inquire-32/data-processor-jar-with-dependencies.jar",
              "application-bronze.json",
              "element-ts-bronze.json"
            ]
          }
        }
      },
      "Retry": [
        {
          "ErrorEquals": [
            "States.ALL"
          ],
          "IntervalSeconds": 1,
          "MaxAttempts": 0,
          "BackoffRate": 2.0
        }
      ],
      "Catch": [
        {
          "ErrorEquals": [
            "States.ALL"
          ],
          "ResultPath": "$.error-info",
          "Next": "ErrorReporting Bronze ElementTs"
        }
      ],
      "ResultPath": "$.result",
      "Next": "S3 Move Stage ElementTs to Processed"
    },
    "ErrorReporting Bronze ElementTs": {
      "Type": "Task",
      "InputPath": "$",
      "Resource": "arn:aws:lambda:us-east-1:097289183747:function:AlarmMessageHandler",
      "ResultPath": "$.result",
      "Next": "S3 Move Stage ElementTs to Failed"
    },
    "S3 Move Stage ElementTs to Failed": {
      "Type": "Task",
      "Resource": "arn:aws:states:::elasticmapreduce:addStep.sync",
      "Parameters": {
        "ClusterId.$": "$.cluster.ClusterId",
        "Step": {
          "Name": "Move Stage ElementTs to Failed",
          "ActionOnFailure": "CONTINUE",
          "HadoopJarStep": {
            "Jar": "command-runner.jar",
            "Args": [
              "aws","s3","mv",
              "s3://eco.inquire.${customer.name}/data/deltalake-stage/processing/",
              "s3://eco.inquire.${customer.name}/data/deltalake-stage/failed/element-ts/",
              "--recursive",
              "--exclude","*",
              "--include","element-ts-*.json.gz"
            ]
          }
        }
      },
      "Retry": [
        {
          "ErrorEquals": [
            "States.ALL"
          ],
          "IntervalSeconds": 1,
          "MaxAttempts": 0,
          "BackoffRate": 2.0
        }
      ],
      "Catch": [
        {
          "ErrorEquals": [
            "States.ALL"
          ],
          "ResultPath": "$.error-info",
          "Next": "Run Silver Subscribers"
        }
      ],
      "ResultPath": "$.result",
      "Next": "Run Silver Subscribers"
    },
    "S3 Move Stage ElementTs to Processed": {
      "Type": "Task",
      "Resource": "arn:aws:states:::elasticmapreduce:addStep.sync",
      "Parameters": {
        "ClusterId.$": "$.cluster.ClusterId",
        "Step": {
          "Name": "Move Stage ElementTs to Processed",
          "ActionOnFailure": "CONTINUE",
          "HadoopJarStep": {
            "Jar": "command-runner.jar",
            "Args": [
              "aws","s3","mv",
              "s3://eco.inquire.${customer.name}/data/deltalake-stage/processing/",
              "s3://eco.inquire.${customer.name}/data/deltalake-stage/processed/element-ts/",
              "--recursive",
              "--exclude","*",
              "--include","element-ts-*.json.gz"
            ]
          }
        }
      },
      "Retry": [
        {
          "ErrorEquals": [
            "States.ALL"
          ],
          "IntervalSeconds": 1,
          "MaxAttempts": 0,
          "BackoffRate": 2.0
        }
      ],
      "Catch": [
        {
          "ErrorEquals": [
            "States.ALL"
          ],
          "ResultPath": "$.error-info",
          "Next": "Run Silver Subscribers"
        }
      ],
      "ResultPath": "$.result",
      "Next": "Run Silver Subscribers"
    },
    "Run Silver Subscribers": {
      "Type": "Task",
      "Resource": "arn:aws:states:::elasticmapreduce:addStep.sync",
      "Parameters": {
        "ClusterId.$": "$.cluster.ClusterId",
        "Step": {
          "Name": "Silver Subscribers",
          "ActionOnFailure": "CONTINUE",
          "HadoopJarStep": {
            "Jar": "command-runner.jar",
            "Args": [
              "spark-submit",
              "--deploy-mode",
              "cluster",
              "--class",
              "com.commscope.eco.Inquire",
              "--jars",
              "s3://eco.inquire.${customer.name}/spark/inquire-32/model-silver-jar-with-dependencies.jar,s3://eco.inquire.${customer.name}/spark/inquire-32/spark-udfs-jar-with-dependencies.jar",
              "--files",
              "s3://eco.inquire.${customer.name}/spark/inquire-32/log4j.properties,s3://eco.inquire.${customer.name}/spark/inquire-32/silver/application-silver.json,s3://eco.inquire.${customer.name}/spark/inquire-32/silver/subscriber-silver.json",
              "--driver-java-options",
              "-Dlog4j.configuration=log4j.properties",
              "--driver-java-options",
              "-Dconfig.resource=application-silver.json",
              "--driver-java-options",
              "-Dconfig.resource=subscriber-silver.json",
              "s3://eco.inquire.${customer.name}/spark/inquire-32/data-processor-jar-with-dependencies.jar",
              "application-silver.json",
              "subscriber-silver.json"
            ]
          }
        }
      },
      "Retry": [
        {
          "ErrorEquals": [
            "States.ALL"
          ],
          "IntervalSeconds": 1,
          "MaxAttempts": 0,
          "BackoffRate": 2.0
        }
      ],
      "Catch": [
        {
          "ErrorEquals": [
            "States.ALL"
          ],
          "ResultPath": "$.error-info",
          "Next": "ErrorReporting Silver Subscribers"
        }
      ],
      "ResultPath": "$.result",
      "Next": "Run Silver Dailyparams"
    },
    "ErrorReporting Silver Subscribers": {
      "Type": "Task",
      "InputPath": "$",
      "Resource": "arn:aws:lambda:us-east-1:097289183747:function:AlarmMessageHandler",
      "ResultPath": "$.result",
      "Next": "Run Silver Dailyparams"
    },
    "Run Silver Dailyparams": {
      "Type": "Task",
      "Resource": "arn:aws:states:::elasticmapreduce:addStep.sync",
      "Parameters": {
        "ClusterId.$": "$.cluster.ClusterId",
        "Step": {
          "Name": "Silver Dailyparams",
          "ActionOnFailure": "CONTINUE",
          "HadoopJarStep": {
            "Jar": "command-runner.jar",
            "Args": [
              "spark-submit",
              "--deploy-mode",
              "cluster",
              "--class",
              "com.commscope.eco.Inquire",
              "--jars",
              "s3://eco.inquire.${customer.name}/spark/inquire-32/model-silver-jar-with-dependencies.jar,s3://eco.inquire.${customer.name}/spark/inquire-32/spark-udfs-jar-with-dependencies.jar",
              "--files",
              "s3://eco.inquire.${customer.name}/spark/inquire-32/log4j.properties,s3://eco.inquire.${customer.name}/spark/inquire-32/silver/application-silver.json,s3://eco.inquire.${customer.name}/spark/inquire-32/silver/dailyparams-silver.json",
              "--driver-java-options",
              "-Dlog4j.configuration=log4j.properties",
              "--driver-java-options",
              "-Dconfig.resource=application-silver.json",
              "--driver-java-options",
              "-Dconfig.resource=dailyparams-silver.json",
              "s3://eco.inquire.${customer.name}/spark/inquire-32/data-processor-jar-with-dependencies.jar",
              "application-silver.json",
              "dailyparams-silver.json"
            ]
          }
        }
      },
      "Retry": [
        {
          "ErrorEquals": [
            "States.ALL"
          ],
          "IntervalSeconds": 1,
          "MaxAttempts": 0,
          "BackoffRate": 2.0
        }
      ],
      "Catch": [
        {
          "ErrorEquals": [
            "States.ALL"
          ],
          "ResultPath": "$.error-info",
          "Next": "ErrorReporting Silver Dailyparams"
        }
      ],
      "ResultPath": "$.result",
      "Next": "Run Silver ElementEvent"
    },
    "ErrorReporting Silver Dailyparams": {
      "Type": "Task",
      "InputPath": "$",
      "Resource": "arn:aws:lambda:us-east-1:097289183747:function:AlarmMessageHandler",
      "ResultPath": "$.result",
      "Next": "Run Silver ElementEvent"
    },
    "Run Silver ElementEvent": {
      "Type": "Task",
      "Resource": "arn:aws:states:::elasticmapreduce:addStep.sync",
      "Parameters": {
        "ClusterId.$": "$.cluster.ClusterId",
        "Step": {
          "Name": "Silver ElementEvent",
          "ActionOnFailure": "CONTINUE",
          "HadoopJarStep": {
            "Jar": "command-runner.jar",
            "Args": [
              "spark-submit",
              "--deploy-mode",
              "cluster",
              "--class",
              "com.commscope.eco.Inquire",
              "--jars",
              "s3://eco.inquire.${customer.name}/spark/inquire-32/model-silver-jar-with-dependencies.jar,s3://eco.inquire.${customer.name}/spark/inquire-32/spark-udfs-jar-with-dependencies.jar",
              "--files",
              "s3://eco.inquire.${customer.name}/spark/inquire-32/log4j.properties,s3://eco.inquire.${customer.name}/spark/inquire-32/silver/application-silver.json,s3://eco.inquire.${customer.name}/spark/inquire-32/silver/element-event-silver.json",
              "--driver-java-options",
              "-Dlog4j.configuration=log4j.properties",
              "--driver-java-options",
              "-Dconfig.resource=application-silver.json",
              "--driver-java-options",
              "-Dconfig.resource=element-event-silver.json",
              "s3://eco.inquire.${customer.name}/spark/inquire-32/data-processor-jar-with-dependencies.jar",
              "application-silver.json",
              "element-event-silver.json"
            ]
          }
        }
      },
      "Retry": [
        {
          "ErrorEquals": [
            "States.ALL"
          ],
          "IntervalSeconds": 1,
          "MaxAttempts": 0,
          "BackoffRate": 2.0
        }
      ],
      "Catch": [
        {
          "ErrorEquals": [
            "States.ALL"
          ],
          "ResultPath": "$.error-info",
          "Next": "ErrorReporting Silver ElementEvent"
        }
      ],
      "ResultPath": "$.result",
      "Next": "Run Silver Firmware"
    },
    "ErrorReporting Silver ElementEvent": {
      "Type": "Task",
      "InputPath": "$",
      "Resource": "arn:aws:lambda:us-east-1:097289183747:function:AlarmMessageHandler",
      "ResultPath": "$.result",
      "Next": "Run Silver Firmware"
    },
    "Run Silver Firmware": {
      "Type": "Task",
      "Resource": "arn:aws:states:::elasticmapreduce:addStep.sync",
      "Parameters": {
        "ClusterId.$": "$.cluster.ClusterId",
        "Step": {
          "Name": "Silver Firmware",
          "ActionOnFailure": "CONTINUE",
          "HadoopJarStep": {
            "Jar": "command-runner.jar",
            "Args": [
              "spark-submit",
              "--deploy-mode",
              "cluster",
              "--class",
              "com.commscope.eco.Inquire",
              "--jars",
              "s3://eco.inquire.${customer.name}/spark/inquire-32/model-silver-jar-with-dependencies.jar,s3://eco.inquire.${customer.name}/spark/inquire-32/spark-udfs-jar-with-dependencies.jar",
              "--files",
              "s3://eco.inquire.${customer.name}/spark/inquire-32/log4j.properties,s3://eco.inquire.${customer.name}/spark/inquire-32/silver/application-silver.json,s3://eco.inquire.${customer.name}/spark/inquire-32/silver/firmware-silver.json",
              "--driver-java-options",
              "-Dlog4j.configuration=log4j.properties",
              "--driver-java-options",
              "-Dconfig.resource=application-silver.json",
              "--driver-java-options",
              "-Dconfig.resource=firmware-silver.json",
              "s3://eco.inquire.${customer.name}/spark/inquire-32/data-processor-jar-with-dependencies.jar",
              "application-silver.json",
              "firmware-silver.json"
            ]
          }
        }
      },
      "Retry": [
        {
          "ErrorEquals": [
            "States.ALL"
          ],
          "IntervalSeconds": 1,
          "MaxAttempts": 0,
          "BackoffRate": 2.0
        }
      ],
      "Catch": [
        {
          "ErrorEquals": [
            "States.ALL"
          ],
          "ResultPath": "$.error-info",
          "Next": "ErrorReporting Silver Firmware"
        }
      ],
      "ResultPath": "$.result",
      "Next": "Run Silver HostTable"
    },
    "ErrorReporting Silver Firmware": {
      "Type": "Task",
      "InputPath": "$",
      "Resource": "arn:aws:lambda:us-east-1:097289183747:function:AlarmMessageHandler",
      "ResultPath": "$.result",
      "Next": "Run Silver HostTable"
    },
    "Run Silver HostTable": {
      "Type": "Task",
      "Resource": "arn:aws:states:::elasticmapreduce:addStep.sync",
      "Parameters": {
        "ClusterId.$": "$.cluster.ClusterId",
        "Step": {
          "Name": "Silver HostTable",
          "ActionOnFailure": "CONTINUE",
          "HadoopJarStep": {
            "Jar": "command-runner.jar",
            "Args": [
              "spark-submit",
              "--deploy-mode",
              "cluster",
              "--class",
              "com.commscope.eco.Inquire",
              "--jars",
              "s3://eco.inquire.${customer.name}/spark/inquire-32/model-silver-jar-with-dependencies.jar,s3://eco.inquire.${customer.name}/spark/inquire-32/spark-udfs-jar-with-dependencies.jar",
              "--files",
              "s3://eco.inquire.${customer.name}/spark/inquire-32/log4j.properties,s3://eco.inquire.${customer.name}/spark/inquire-32/silver/application-silver.json,s3://eco.inquire.${customer.name}/spark/inquire-32/silver/host-table-silver.json",
              "--driver-java-options",
              "-Dlog4j.configuration=log4j.properties",
              "--driver-java-options",
              "-Dconfig.resource=application-silver.json",
              "--driver-java-options",
              "-Dconfig.resource=host-table-silver.json",
              "s3://eco.inquire.${customer.name}/spark/inquire-32/data-processor-jar-with-dependencies.jar",
              "application-silver.json",
              "host-table-silver.json"
            ]
          }
        }
      },
      "Retry": [
        {
          "ErrorEquals": [
            "States.ALL"
          ],
          "IntervalSeconds": 1,
          "MaxAttempts": 0,
          "BackoffRate": 2.0
        }
      ],
      "Catch": [
        {
          "ErrorEquals": [
            "States.ALL"
          ],
          "ResultPath": "$.error-info",
          "Next": "ErrorReporting Silver HostTable"
        }
      ],
      "ResultPath": "$.result",
      "Next": "Run Silver ElementTs"
    },
    "ErrorReporting Silver HostTable": {
      "Type": "Task",
      "InputPath": "$",
      "Resource": "arn:aws:lambda:us-east-1:097289183747:function:AlarmMessageHandler",
      "ResultPath": "$.result",
      "Next": "Run Silver ElementTs"
    },
    "Run Silver ElementTs": {
      "Type": "Task",
      "Resource": "arn:aws:states:::elasticmapreduce:addStep.sync",
      "Parameters": {
        "ClusterId.$": "$.cluster.ClusterId",
        "Step": {
          "Name": "Silver ElementTs",
          "ActionOnFailure": "CONTINUE",
          "HadoopJarStep": {
            "Jar": "command-runner.jar",
            "Args": [
              "spark-submit",
              "--deploy-mode",
              "cluster",
              "--class",
              "com.commscope.eco.Inquire",
              "--jars",
              "s3://eco.inquire.${customer.name}/spark/inquire-32/model-silver-jar-with-dependencies.jar,s3://eco.inquire.${customer.name}/spark/inquire-32/spark-udfs-jar-with-dependencies.jar",
              "--files",
              "s3://eco.inquire.${customer.name}/spark/inquire-32/log4j.properties,s3://eco.inquire.${customer.name}/spark/inquire-32/silver/application-silver.json,s3://eco.inquire.${customer.name}/spark/inquire-32/silver/element-ts-silver.json",
              "--driver-java-options",
              "-Dlog4j.configuration=log4j.properties",
              "--driver-java-options",
              "-Dconfig.resource=application-silver.json",
              "--driver-java-options",
              "-Dconfig.resource=element-ts-silver.json",
              "s3://eco.inquire.${customer.name}/spark/inquire-32/data-processor-jar-with-dependencies.jar",
              "application-silver.json",
              "element-ts-silver.json"
            ]
          }
        }
      },
      "Retry": [
        {
          "ErrorEquals": [
            "States.ALL"
          ],
          "IntervalSeconds": 1,
          "MaxAttempts": 0,
          "BackoffRate": 2.0
        }
      ],
      "Catch": [
        {
          "ErrorEquals": [
            "States.ALL"
          ],
          "ResultPath": "$.error-info",
          "Next": "ErrorReporting Silver ElementTs"
        }
      ],
      "ResultPath": "$.result",
      "Next": "Run Gold Client"
    },
    "ErrorReporting Silver ElementTs": {
      "Type": "Task",
      "InputPath": "$",
      "Resource": "arn:aws:lambda:us-east-1:097289183747:function:AlarmMessageHandler",
      "ResultPath": "$.result",
      "Next": "Run Gold Client"
    },
    "Run Gold Client": {
      "Type": "Task",
      "Resource": "arn:aws:states:::elasticmapreduce:addStep.sync",
      "Parameters": {
        "ClusterId.$": "$.cluster.ClusterId",
        "Step": {
          "Name": "Gold Client",
          "ActionOnFailure": "CONTINUE",
          "HadoopJarStep": {
            "Jar": "command-runner.jar",
            "Args": [
              "spark-submit",
              "--deploy-mode",
              "cluster",
              "--class",
              "com.commscope.eco.Inquire",
              "--jars",
              "s3://eco.inquire.${customer.name}/spark/inquire-32/model-silver-jar-with-dependencies.jar,s3://eco.inquire.${customer.name}/spark/inquire-32/spark-udfs-jar-with-dependencies.jar",
              "--files",
              "s3://eco.inquire.${customer.name}/spark/inquire-32/log4j.properties,s3://eco.inquire.${customer.name}/spark/inquire-32/gold/application-gold.json,s3://eco.inquire.${customer.name}/spark/inquire-32/gold/client-gold.json",
              "--driver-java-options",
              "-Dlog4j.configuration=log4j.properties",
              "--driver-java-options",
              "-Dconfig.resource=application-gold.json",
              "--driver-java-options",
              "-Dconfig.resource=client-gold.json",
              "s3://eco.inquire.${customer.name}/spark/inquire-32/data-processor-jar-with-dependencies.jar",
              "application-gold.json",
              "client-gold.json"
            ]
          }
        }
      },
      "Retry": [
        {
          "ErrorEquals": [
            "States.ALL"
          ],
          "IntervalSeconds": 1,
          "MaxAttempts": 0,
          "BackoffRate": 2.0
        }
      ],
      "Catch": [
        {
          "ErrorEquals": [
            "States.ALL"
          ],
          "ResultPath": "$.error-info",
          "Next": "ErrorReporting Gold Client"
        }
      ],
      "ResultPath": "$.result",
      "Next": "Run Gold DeviceBW"
    },
    "ErrorReporting Gold Client": {
      "Type": "Task",
      "InputPath": "$",
      "Resource": "arn:aws:lambda:us-east-1:097289183747:function:AlarmMessageHandler",
      "ResultPath": "$.result",
      "Next": "Run Gold DeviceBW"
    },
    "Run Gold DeviceBW": {
      "Type": "Task",
      "Resource": "arn:aws:states:::elasticmapreduce:addStep.sync",
      "Parameters": {
        "ClusterId.$": "$.cluster.ClusterId",
        "Step": {
          "Name": "Gold DeviceBW",
          "ActionOnFailure": "CONTINUE",
          "HadoopJarStep": {
            "Jar": "command-runner.jar",
            "Args": [
              "spark-submit",
              "--deploy-mode",
              "cluster",
              "--class",
              "com.commscope.eco.Inquire",
              "--jars",
              "s3://eco.inquire.${customer.name}/spark/inquire-32/model-silver-jar-with-dependencies.jar,s3://eco.inquire.${customer.name}/spark/inquire-32/spark-udfs-jar-with-dependencies.jar",
              "--files",
              "s3://eco.inquire.${customer.name}/spark/inquire-32/log4j.properties,s3://eco.inquire.${customer.name}/spark/inquire-32/gold/application-gold.json,s3://eco.inquire.${customer.name}/spark/inquire-32/gold/deviceBWPipeline.json",
              "--driver-java-options",
              "-Dlog4j.configuration=log4j.properties",
              "--driver-java-options",
              "-Dconfig.resource=application-gold.json",
              "--driver-java-options",
              "-Dconfig.resource=deviceBWPipeline.json",
              "s3://eco.inquire.${customer.name}/spark/inquire-32/data-processor-jar-with-dependencies.jar",
              "application-gold.json",
              "deviceBWPipeline.json"
            ]
          }
        }
      },
      "Retry": [
        {
          "ErrorEquals": [
            "States.ALL"
          ],
          "IntervalSeconds": 1,
          "MaxAttempts": 0,
          "BackoffRate": 2.0
        }
      ],
      "Catch": [
        {
          "ErrorEquals": [
            "States.ALL"
          ],
          "ResultPath": "$.error-info",
          "Next": "ErrorReporting Gold DeviceBW"
        }
      ],
      "ResultPath": "$.result",
      "Next": "Run Gold ClientBW"
    },
    "ErrorReporting Gold DeviceBW": {
      "Type": "Task",
      "InputPath": "$",
      "Resource": "arn:aws:lambda:us-east-1:097289183747:function:AlarmMessageHandler",
      "ResultPath": "$.result",
      "Next": "Run Gold ClientBW"
    },
    "Run Gold ClientBW": {
      "Type": "Task",
      "Resource": "arn:aws:states:::elasticmapreduce:addStep.sync",
      "Parameters": {
        "ClusterId.$": "$.cluster.ClusterId",
        "Step": {
          "Name": "Gold ClientBW",
          "ActionOnFailure": "CONTINUE",
          "HadoopJarStep": {
            "Jar": "command-runner.jar",
            "Args": [
              "spark-submit",
              "--deploy-mode",
              "cluster",
              "--class",
              "com.commscope.eco.Inquire",
              "--jars",
              "s3://eco.inquire.${customer.name}/spark/inquire-32/model-silver-jar-with-dependencies.jar,s3://eco.inquire.${customer.name}/spark/inquire-32/spark-udfs-jar-with-dependencies.jar",
              "--files",
              "s3://eco.inquire.${customer.name}/spark/inquire-32/log4j.properties,s3://eco.inquire.${customer.name}/spark/inquire-32/gold/application-gold.json,s3://eco.inquire.${customer.name}/spark/inquire-32/gold/clientBWPipeline.json",
              "--driver-java-options",
              "-Dlog4j.configuration=log4j.properties",
              "--driver-java-options",
              "-Dconfig.resource=application-gold.json",
              "--driver-java-options",
              "-Dconfig.resource=clientBWPipeline.json",
              "s3://eco.inquire.${customer.name}/spark/inquire-32/data-processor-jar-with-dependencies.jar",
              "application-gold.json",
              "clientBWPipeline.json"
            ]
          }
        }
      },
      "Retry": [
        {
          "ErrorEquals": [
            "States.ALL"
          ],
          "IntervalSeconds": 1,
          "MaxAttempts": 0,
          "BackoffRate": 2.0
        }
      ],
      "Catch": [
        {
          "ErrorEquals": [
            "States.ALL"
          ],
          "ResultPath": "$.error-info",
          "Next": "ErrorReporting Gold ClientBW"
        }
      ],
      "ResultPath": "$.result",
      "Next": "S3 Move All Deltalake warehouse-inproc to warehouse"
    },
    "ErrorReporting Gold ClientBW": {
      "Type": "Task",
      "InputPath": "$",
      "Resource": "arn:aws:lambda:us-east-1:097289183747:function:AlarmMessageHandler",
      "ResultPath": "$.result",
      "Next": "S3 Move All Deltalake warehouse-inproc to warehouse"
    },
    "S3 Move All Deltalake warehouse-inproc to warehouse": {
      "Type": "Task",
      "Resource": "arn:aws:states:::elasticmapreduce:addStep.sync",
      "Parameters": {
        "ClusterId.$": "$.cluster.ClusterId",
        "Step": {
          "Name": "Merge deltalake warehouse-inproc to warehouse",
          "ActionOnFailure": "CONTINUE",
          "HadoopJarStep": {
            "Jar": "command-runner.jar",
            "Args": [
              "aws","s3","mv",
              "s3://eco.inquire.${customer.name}/warehouse-inproc/",
              "s3://eco.inquire.${customer.name}/warehouse/",
              "--recursive"
            ]
          }
        }
      },
      "Retry": [
        {
          "ErrorEquals": [
            "States.ALL"
          ],
          "IntervalSeconds": 1,
          "MaxAttempts": 0,
          "BackoffRate": 2.0
        }
      ],
      "Catch": [
        {
          "ErrorEquals": [
            "States.ALL"
          ],
          "ResultPath": "$.error-info",
          "Next": "Terminate EMR Cluster"
        }
      ],
      "ResultPath": "$.result",
      "Next": "Terminate EMR Cluster"
    },
    "Terminate EMR Cluster": {
      "Type": "Task",
      "Resource": "arn:aws:states:::elasticmapreduce:terminateCluster",
      "Parameters": {
        "ClusterId.$": "$.cluster.ClusterId"
      },
      "Retry": [
        {
          "ErrorEquals": [
            "States.ALL"
          ],
          "IntervalSeconds": 1,
          "MaxAttempts": 2,
          "BackoffRate": 2.0
        }
      ],
      "ResultPath": "$.result",
      "End": true
    }
  }
}