{
  "Comment": "ECO Inquire EMR Workflow - One Flow Step-Function Implementation",
  "StartAt": "Check EMR Cluster",
  
  "States": {
    "Check EMR Cluster": {
      "Type": "Task",
      "Parameters": {
        "clusterName": "eco.inquire.sf.emr.cluster.oneflow.${customer.name}"
      },
      "Resource": "arn:aws:lambda:us-east-1:097289183747:function:CheckEMRCluster",
      "Catch": [
        {
          "ErrorEquals": [
            "States.ALL"
          ],
          "ResultPath": "$.error-info",
          "Next": "ErrorReporting WorkflowFailure"
        }
      ],
      "ResultPath": "$.result",
      "Next": "Create EMR Cluster"
    },
    "ErrorReporting WorkflowFailure": {
      "Type": "Task",
      "InputPath": "$",
      "Resource": "arn:aws:lambda:us-east-1:097289183747:function:AlarmMessageHandler",
      "Catch": [
        {
          "ErrorEquals": [
            "States.ALL"
          ],
          "ResultPath": "$.error-info",
          "Next": "Workflow Failed"
        }
      ],
      "ResultPath": "$.error-info",
      "Next": "Workflow Failed"
    },
    "Workflow Failed": {
      "Type": "Fail",
      "Cause": "Workflow Failed!"
    },

    "Create EMR Cluster": {
      "Type": "Task",
      "Resource": "arn:aws:states:::elasticmapreduce:createCluster.sync",
      "Parameters": {
        "Name": "eco.inquire.sf.emr.cluster.oneflow.${customer.name}",
        "VisibleToAllUsers": true,
        "ReleaseLabel": "emr-5.30.1",
        "Applications": [
          {
            "Name": "Hadoop"
          },
          {
            "Name": "Spark"
          },
          {
            "Name": "Hive"
          },
          {
            "Name": "Livy"
          }
        ],
        "JobFlowRole": "Role-EC2-S3-EcoInquire-3",
        "ServiceRole": "EMR_DefaultRole",
        "LogUri": "s3n://aws-logs-097289183747-us-east-1/elasticmapreduce/stepfunctions/",
        "Tags": [
          {
            "Key": "Stage",
            "Value": "production"
          },
          {
            "Key": "Name",
            "Value": "eco.inquire.deltaLake.${customer.name}"
          }
        ],
        "Configurations": [
          {
            "Classification": "capacity-scheduler",
            "Properties": {
              "yarn.scheduler.capacity.resource-calculator": "org.apache.hadoop.yarn.util.resource.DominantResourceCalculator"
            }
          },
          {
            "Classification": "spark",
            "Properties": {
              "maximizeResourceAllocation": "true"
            }
          },
          {
            "Classification": "spark-defaults",
            "Properties": {
              "spark.driver.maxResultSize": "0"
            }
          }
        ],
        "ManagedScalingPolicy": {
          "ComputeLimits": {
            "MaximumCapacityUnits": 34,
            "MaximumCoreCapacityUnits": 2,
            "MaximumOnDemandCapacityUnits": 10,
            "MinimumCapacityUnits": 10,
            "UnitType": "InstanceFleetUnits"
          }
        },
        "Instances": {
          "Ec2KeyName": "fedauth-eco-inquire3-telmex",
          "EmrManagedMasterSecurityGroup": "sg-057bc5db2304875d0",
          "EmrManagedSlaveSecurityGroup": "sg-057bc5db2304875d0",
          "KeepJobFlowAliveWhenNoSteps": true,
          "TerminationProtected": false,
          "InstanceFleets": [
            {
              "Name": "MasterFleet",
              "InstanceFleetType": "MASTER",
              "TargetOnDemandCapacity": 1,
              "InstanceTypeConfigs": [
                {
                  "InstanceType": "m5.xlarge"
                }
              ]
            },
            {
              "Name": "CoreFleet",
              "InstanceFleetType": "CORE",
              "TargetOnDemandCapacity": 2,
              "InstanceTypeConfigs": [
                {
                  "InstanceType": "m5.2xlarge",
                  "WeightedCapacity": 1
                },
                {
                  "InstanceType": "r5d.2xlarge",
                  "WeightedCapacity": 1
                },
                {
                  "InstanceType": "r5.2xlarge",
                  "WeightedCapacity": 1
                },
                {
                  "InstanceType": "i3en.2xlarge",
                  "WeightedCapacity": 1
                },
                {
                  "InstanceType": "r5a.2xlarge",
                  "WeightedCapacity": 1
                }
              ]
            },
            {
              "Name": "TaskFleet",
              "InstanceFleetType": "TASK",
              "TargetOnDemandCapacity": 8,
              "TargetSpotCapacity": 24,
              "LaunchSpecifications": {
                "SpotSpecification": {
                  "TimeoutDurationMinutes": 1200,
                  "TimeoutAction": "SWITCH_TO_ON_DEMAND"
                }
              },
              "InstanceTypeConfigs": [
                {
                  "InstanceType": "m5.2xlarge",
                  "WeightedCapacity": 1
                },
                {
                  "InstanceType": "r5d.2xlarge",
                  "WeightedCapacity": 1
                },
                {
                  "InstanceType": "r5.2xlarge",
                  "WeightedCapacity": 1
                },
                {
                  "InstanceType": "i3en.2xlarge",
                  "WeightedCapacity": 1
                },
                {
                  "InstanceType": "r5a.2xlarge",
                  "WeightedCapacity": 1
                }
              ]
            }
          ]
        }
      },
      "Retry": [
        {
          "ErrorEquals": [
            "States.ALL"
          ],
          "IntervalSeconds": 1,
          "MaxAttempts": 1,
          "BackoffRate": 2.0
        }
      ],
      "Catch": [
        {
          "ErrorEquals": [
            "States.ALL"
          ],
          "ResultPath": "$.error-info",
          "Next": "Terminate EMR Cluster and Fail"
        }
      ],
      "ResultPath": "$.cluster",
      "Next": "Cleanup S3 Stage Processing Path"
    },

    "Cleanup S3 Stage Processing Path": {
      "Type": "Task",
      "Resource": "arn:aws:states:::elasticmapreduce:addStep.sync",
      "Parameters": {
        "ClusterId.$": "$.cluster.ClusterId",
        "Step": {
          "Name": "Cleanup S3 Stage Processing Path",
          "ActionOnFailure": "CONTINUE",
          "HadoopJarStep": {
            "Jar": "command-runner.jar",
            "Args": [
              "aws","s3","rm",
              "s3://eco.inquire.${customer.name}/data/deltalake-stage/processing/",
              "--recursive"
            ]
          }
        }
      },
      "Catch": [
        {
          "ErrorEquals": [
            "States.ALL"
          ],
          "ResultPath": "$.error-info",
          "Next": "Terminate EMR Cluster and Fail"
        }
      ],
      "ResultPath": "$.result",
      "Next": "Cleanup S3 Warehouse-Inproc Path"
    },
    "Cleanup S3 Warehouse-Inproc Path": {
      "Type": "Task",
      "Resource": "arn:aws:states:::elasticmapreduce:addStep.sync",
      "Parameters": {
        "ClusterId.$": "$.cluster.ClusterId",
        "Step": {
          "Name": "Cleanup S3 Warehouse-Inproc Path",
          "ActionOnFailure": "CONTINUE",
          "HadoopJarStep": {
            "Jar": "command-runner.jar",
            "Args": [
              "aws","s3","rm",
              "s3://eco.inquire.${customer.name}/warehouse-inproc/",
              "--recursive"
            ]
          }
        }
      },
      "Catch": [
        {
          "ErrorEquals": [
            "States.ALL"
          ],
          "ResultPath": "$.error-info",
          "Next": "Terminate EMR Cluster and Fail"
        }
      ],
      "ResultPath": "$.result",
      "Next": "S3 Move All Stage incoming to processing"
    },
    "S3 Move All Stage incoming to processing": {
      "Type": "Task",
      "Resource": "arn:aws:states:::elasticmapreduce:addStep.sync",
      "Parameters": {
        "ClusterId.$": "$.cluster.ClusterId",
        "Step": {
          "Name": "Move All Stage incoming to processing",
          "ActionOnFailure": "CONTINUE",
          "HadoopJarStep": {
            "Jar": "command-runner.jar",
            "Args":[
              "s3-dist-cp",
              "-D s3DistCp.copyfiles.mapper.numWorkers=1",
              "--src=s3://eco.inquire.${customer.name}/data/deltalake-stage/incoming",
              "--dest=s3://eco.inquire.${customer.name}/data/deltalake-stage/processing",
              "--deleteOnSuccess",
              "--srcPattern=.*(subscriber-|dailyparams-|element-event-|host-table-|firmware-|element-ts-).*"
            ]
          }
        }
      },
      "Retry": [
        {
          "ErrorEquals": [
            "States.ALL"
          ],
          "IntervalSeconds": 1,
          "MaxAttempts": 0,
          "BackoffRate": 2.0
        }
      ],
      "Catch": [
        {
          "ErrorEquals": [
            "States.ALL"
          ],
          "ResultPath": "$.error-info",
          "Next": "Terminate EMR Cluster and Fail"
        }
      ],
      "ResultPath": "$.result",
      "Next": "Find Stage Subscribers Data"
    },

    "Find Stage Subscribers Data": {
      "Type": "Task",
      "Parameters": {
        "bucket": "eco.inquire.${customer.name}",
        "path": "data/deltalake-stage/processing/subscriber-"
      },
      "Resource": "arn:aws:lambda:us-east-1:097289183747:function:CheckS3DataFun",
      "Catch": [
        {
          "ErrorEquals": [
            "States.ALL"
          ],
          "ResultPath": "$.error-info",
          "Next": "ErrorReporting NoStageSubscriberData"
        }
      ],
      "ResultPath": "$.result",
      "Next": "Run Bronze Subscriber"
    },
    "ErrorReporting NoStageSubscriberData": {
      "Type": "Task",
      "InputPath": "$",
      "Resource": "arn:aws:lambda:us-east-1:097289183747:function:AlarmMessageHandler",
      "Catch": [
        {
          "ErrorEquals": [
            "States.ALL"
          ],
          "ResultPath": "$.error-info",
          "Next": "Find Stage Dailyparams Data"
        }
      ],
      "ResultPath": "$.error-info",
      "Next": "Find Stage Dailyparams Data"
    },
    "Run Bronze Subscriber": {
      "Type": "Task",
      "Resource": "arn:aws:states:::elasticmapreduce:addStep.sync",
      "Parameters": {
        "ClusterId.$": "$.cluster.ClusterId",
        "Step": {
          "Name": "Bronze Subscriber",
          "ActionOnFailure": "CONTINUE",
          "HadoopJarStep": {
            "Jar": "command-runner.jar",
            "Args": [
              "spark-submit",
              "--deploy-mode",
              "cluster",
              "--class",
              "com.commscope.eco.Inquire",
              "--jars",
              "s3://eco.inquire.${customer.name}/spark/inquire-32/model-silver-jar-with-dependencies.jar,s3://eco.inquire.${customer.name}/spark/inquire-32/spark-udfs-jar-with-dependencies.jar",
              "--files",
              "s3://eco.inquire.${customer.name}/spark/inquire-32/log4j.properties,s3://eco.inquire.${customer.name}/spark/inquire-32/bronze/application-bronze.json,s3://eco.inquire.${customer.name}/spark/inquire-32/bronze/subscriber-bronze.json",
              "--driver-java-options",
              "-Dlog4j.configuration=log4j.properties",
              "--driver-java-options",
              "-Dconfig.resource=application-bronze.json",
              "--driver-java-options",
              "-Dconfig.resource=subscriber-bronze.json",
              "s3://eco.inquire.${customer.name}/spark/inquire-32/data-processor-jar-with-dependencies.jar",
              "application-bronze.json",
              "subscriber-bronze.json"
            ]
          }
        }
      },
      "Retry": [
        {
          "ErrorEquals": [
            "States.ALL"
          ],
          "IntervalSeconds": 1,
          "MaxAttempts": 0,
          "BackoffRate": 2.0
        }
      ],
      "Catch": [
        {
          "ErrorEquals": [
            "States.ALL"
          ],
          "ResultPath": "$.error-info",
          "Next": "ErrorReporting Bronze Subscriber"
        }
      ],
      "ResultPath": "$.result",
      "Next": "S3 Move Stage Subscribers to Processed"
    },
    "ErrorReporting Bronze Subscriber": {
      "Type": "Task",
      "InputPath": "$",
      "Resource": "arn:aws:lambda:us-east-1:097289183747:function:AlarmMessageHandler",
      "Catch": [
        {
          "ErrorEquals": [
            "States.ALL"
          ],
          "ResultPath": "$.error-info",
          "Next": "S3 Move Stage Subscribers to Failed"
        }
      ],
      "ResultPath": "$.result",
      "Next": "S3 Move Stage Subscribers to Failed"
    },
    "S3 Move Stage Subscribers to Failed": {
      "Type": "Task",
      "Resource": "arn:aws:states:::elasticmapreduce:addStep.sync",
      "Parameters": {
        "ClusterId.$": "$.cluster.ClusterId",
        "Step": {
          "Name": "Move Stage Subscribers to Failed",
          "ActionOnFailure": "CONTINUE",
          "HadoopJarStep": {
            "Jar": "command-runner.jar",
            "Args": [
              "s3-dist-cp",
              "-D s3DistCp.copyfiles.mapper.numWorkers=1",
              "--src=s3://eco.inquire.${customer.name}/data/deltalake-stage/processing",
              "--dest=s3://eco.inquire.${customer.name}/data/deltalake-stage/failed/subscriber",
              "--deleteOnSuccess",
              "--srcPattern=.*subscriber-.*.json.gz"
            ]
          }
        }
      },
      "Retry": [
        {
          "ErrorEquals": [
            "States.ALL"
          ],
          "IntervalSeconds": 1,
          "MaxAttempts": 0,
          "BackoffRate": 2.0
        }
      ],
      "Catch": [
        {
          "ErrorEquals": [
            "States.ALL"
          ],
          "ResultPath": "$.error-info",
          "Next": "Find Stage Dailyparams Data"
        }
      ],
      "ResultPath": "$.result",
      "Next": "Find Stage Dailyparams Data"
    },
    "S3 Move Stage Subscribers to Processed": {
      "Type": "Task",
      "Resource": "arn:aws:states:::elasticmapreduce:addStep.sync",
      "Parameters": {
        "ClusterId.$": "$.cluster.ClusterId",
        "Step": {
          "Name": "Move Stage Subscribers to Processed",
          "ActionOnFailure": "CONTINUE",
          "HadoopJarStep": {
            "Jar": "command-runner.jar",
            "Args": [
              "s3-dist-cp",
              "-D s3DistCp.copyfiles.mapper.numWorkers=1",
              "--src=s3://eco.inquire.${customer.name}/data/deltalake-stage/processing",
              "--dest=s3://eco.inquire.${customer.name}/data/deltalake-stage/processed/subscriber",
              "--deleteOnSuccess",
              "--srcPattern=.*subscriber-.*.json.gz"
            ]
          }
        }
      },
      "Retry": [
        {
          "ErrorEquals": [
            "States.ALL"
          ],
          "IntervalSeconds": 1,
          "MaxAttempts": 0,
          "BackoffRate": 2.0
        }
      ],
      "Catch": [
        {
          "ErrorEquals": [
            "States.ALL"
          ],
          "ResultPath": "$.error-info",
          "Next": "Run Silver Subscribers"
        }
      ],
      "ResultPath": "$.result",
      "Next": "Run Silver Subscribers"
    },
    "Run Silver Subscribers": {
      "Type": "Task",
      "Resource": "arn:aws:states:::elasticmapreduce:addStep.sync",
      "Parameters": {
        "ClusterId.$": "$.cluster.ClusterId",
        "Step": {
          "Name": "Silver Subscribers",
          "ActionOnFailure": "CONTINUE",
          "HadoopJarStep": {
            "Jar": "command-runner.jar",
            "Args": [
              "spark-submit",
              "--deploy-mode",
              "cluster",
              "--class",
              "com.commscope.eco.Inquire",
              "--jars",
              "s3://eco.inquire.${customer.name}/spark/inquire-32/model-silver-jar-with-dependencies.jar,s3://eco.inquire.${customer.name}/spark/inquire-32/spark-udfs-jar-with-dependencies.jar",
              "--files",
              "s3://eco.inquire.${customer.name}/spark/inquire-32/log4j.properties,s3://eco.inquire.${customer.name}/spark/inquire-32/silver/application-silver.json,s3://eco.inquire.${customer.name}/spark/inquire-32/silver/subscriber-silver.json",
              "--driver-java-options",
              "-Dlog4j.configuration=log4j.properties",
              "--driver-java-options",
              "-Dconfig.resource=application-silver.json",
              "--driver-java-options",
              "-Dconfig.resource=subscriber-silver.json",
              "s3://eco.inquire.${customer.name}/spark/inquire-32/data-processor-jar-with-dependencies.jar",
              "application-silver.json",
              "subscriber-silver.json"
            ]
          }
        }
      },
      "Retry": [
        {
          "ErrorEquals": [
            "States.ALL"
          ],
          "IntervalSeconds": 1,
          "MaxAttempts": 0,
          "BackoffRate": 2.0
        }
      ],
      "Catch": [
        {
          "ErrorEquals": [
            "States.ALL"
          ],
          "ResultPath": "$.error-info",
          "Next": "ErrorReporting Silver Subscribers"
        }
      ],
      "ResultPath": "$.result",
      "Next": "Move Inproc Silver Subscribers to warehouse"
    },
    "ErrorReporting Silver Subscribers": {
      "Type": "Task",
      "InputPath": "$",
      "Resource": "arn:aws:lambda:us-east-1:097289183747:function:AlarmMessageHandler",
      "Catch": [
        {
          "ErrorEquals": [
            "States.ALL"
          ],
          "ResultPath": "$.error-info",
          "Next": "Move Inproc Silver Subscribers to warehouse"
        }
      ],
      "ResultPath": "$.result",
      "Next": "Move Inproc Silver Subscribers to warehouse"
    },
    "Move Inproc Silver Subscribers to warehouse": {
      "Type": "Task",
      "Resource": "arn:aws:states:::elasticmapreduce:addStep.sync",
      "Parameters": {
        "ClusterId.$": "$.cluster.ClusterId",
        "Step": {
          "Name": "Move Inproc Silver Subscribers to warehouse",
          "ActionOnFailure": "CONTINUE",
          "HadoopJarStep": {
            "Jar": "command-runner.jar",
            "Args": [
              "s3-dist-cp",
              "-D s3DistCp.copyfiles.mapper.numWorkers=1",
              "--src=s3://eco.inquire.${customer.name}/warehouse-inproc/silver/subscriber",
              "--dest=s3://eco.inquire.${customer.name}/warehouse/silver/subscriber",
              "--deleteOnSuccess"
            ]
          }
        }
      },
      "Retry": [
        {
          "ErrorEquals": [
            "States.ALL"
          ],
          "IntervalSeconds": 1,
          "MaxAttempts": 0,
          "BackoffRate": 2.0
        }
      ],
      "Catch": [
        {
          "ErrorEquals": [
            "States.ALL"
          ],
          "ResultPath": "$.error-info",
          "Next": "Create Gold Subscriber Population"
        }
      ],
      "ResultPath": "$.result",
      "Next": "Create Gold Subscriber Population"
    },
    "Create Gold Subscriber Population": {
      "Type": "Task",
      "Resource": "arn:aws:states:::elasticmapreduce:addStep.sync",
      "Parameters": {
        "ClusterId.$": "$.cluster.ClusterId",
        "Step": {
          "Name": "Create Gold Subscriber Population",
          "ActionOnFailure": "CONTINUE",
          "HadoopJarStep": {
            "Jar": "command-runner.jar",
            "Args": [
              "spark-submit",
              "--deploy-mode",
              "cluster",
              "--class",
              "com.commscope.eco.DataExporter",
              "--files",
              "s3://eco.inquire.${customer.name}/spark/inquire-32/log4j.properties",
              "--driver-java-options",
              "-Dlog4j.configuration=log4j.properties",
              "s3://eco.inquire.${customer.name}/spark/inquire-32/data-processor-jar-with-dependencies.jar",
              "table==subscriber=s3://eco.inquire.${customer.name}/warehouse/silver/subscriber",
              "query==select subscriber_id, usi, created, zip, city, state, country, ts_date, rank from (select *, row_number() over (partition by subscriber_id order by created desc) rank from subscriber) tmp where rank =1",
              "output_location==s3://eco.inquire.${customer.name}/warehouse/gold/subscriber_population",
              "mode==overwrite",
              "format==parquet"
            ]
          }
        }
      },
      "Retry": [
        {
          "ErrorEquals": [
            "States.ALL"
          ],
          "IntervalSeconds": 1,
          "MaxAttempts": 0,
          "BackoffRate": 2.0
        }
      ],
      "Catch": [
        {
          "ErrorEquals": [
            "States.ALL"
          ],
          "ResultPath": "$.error-info",
          "Next": "ErrorReporting Gold Subscriber Population"
        }
      ],
      "ResultPath": "$.result",
      "Next": "Create Gold Subscriber Population CSV"
    },
    "ErrorReporting Gold Subscriber Population": {
      "Type": "Task",
      "InputPath": "$",
      "Resource": "arn:aws:lambda:us-east-1:097289183747:function:AlarmMessageHandler",
      "Catch": [
        {
          "ErrorEquals": [
            "States.ALL"
          ],
          "ResultPath": "$.error-info",
          "Next": "Find Stage Dailyparams Data"
        }
      ],
      "ResultPath": "$.result",
      "Next": "Find Stage Dailyparams Data"
    },
    "Create Gold Subscriber Population CSV": {
      "Type": "Task",
      "Resource": "arn:aws:states:::elasticmapreduce:addStep.sync",
      "Parameters": {
        "ClusterId.$": "$.cluster.ClusterId",
        "Step": {
          "Name": "Create Gold Subscriber Population CSV",
          "ActionOnFailure": "CONTINUE",
          "HadoopJarStep": {
            "Jar": "command-runner.jar",
            "Args": [
              "spark-submit",
              "--deploy-mode",
              "cluster",
              "--class",
              "com.commscope.eco.DataExporter",
              "--files",
              "s3://eco.inquire.${customer.name}/spark/inquire-32/log4j.properties",
              "--driver-java-options",
              "-Dlog4j.configuration=log4j.properties",
              "s3://eco.inquire.${customer.name}/spark/inquire-32/data-processor-jar-with-dependencies.jar",
              "table==subscriber=s3://eco.inquire.${customer.name}/warehouse/gold/subscriber_population",
              "query==select * from subscriber",
              "output_location==s3://eco.inquire.${customer.name}/warehouse/gold/csv/subscriber_population",
              "mode==overwrite",
              "format==csv"
            ]
          }
        }
      },
      "Retry": [
        {
          "ErrorEquals": [
            "States.ALL"
          ],
          "IntervalSeconds": 1,
          "MaxAttempts": 0,
          "BackoffRate": 2.0
        }
      ],
      "Catch": [
        {
          "ErrorEquals": [
            "States.ALL"
          ],
          "ResultPath": "$.error-info",
          "Next": "ErrorReporting Gold Subscriber Population CSV"
        }
      ],
      "ResultPath": "$.result",
      "Next": "Find Stage Dailyparams Data"
    },
    "ErrorReporting Gold Subscriber Population CSV": {
      "Type": "Task",
      "InputPath": "$",
      "Resource": "arn:aws:lambda:us-east-1:097289183747:function:AlarmMessageHandler",
      "Catch": [
        {
          "ErrorEquals": [
            "States.ALL"
          ],
          "ResultPath": "$.error-info",
          "Next": "Find Stage Dailyparams Data"
        }
      ],
      "ResultPath": "$.result",
      "Next": "Find Stage Dailyparams Data"
    },

    "Find Stage Dailyparams Data": {
      "Type": "Task",
      "Parameters": {
        "bucket": "eco.inquire.${customer.name}",
        "path": "data/deltalake-stage/processing/dailyparams-"
      },
      "Resource": "arn:aws:lambda:us-east-1:097289183747:function:CheckS3DataFun",
      "Catch": [
        {
          "ErrorEquals": [
            "States.ALL"
          ],
          "ResultPath": "$.error-info",
          "Next": "ErrorReporting NoStageDailyparamsData"
        }
      ],
      "ResultPath": "$.result",
      "Next": "Run Bronze Dailyparams"
    },
    "ErrorReporting NoStageDailyparamsData": {
      "Type": "Task",
      "InputPath": "$",
      "Resource": "arn:aws:lambda:us-east-1:097289183747:function:AlarmMessageHandler",
      "Catch": [
        {
          "ErrorEquals": [
            "States.ALL"
          ],
          "ResultPath": "$.error-info",
          "Next": "Find Stage ElementEvent Data"
        }
      ],
      "ResultPath": "$.error-info",
      "Next": "Find Stage ElementEvent Data"
    },
    "Run Bronze Dailyparams": {
      "Type": "Task",
      "Resource": "arn:aws:states:::elasticmapreduce:addStep.sync",
      "Parameters": {
        "ClusterId.$": "$.cluster.ClusterId",
        "Step": {
          "Name": "Bronze Dailyparams",
          "ActionOnFailure": "CONTINUE",
          "HadoopJarStep": {
            "Jar": "command-runner.jar",
            "Args": [
              "spark-submit",
              "--deploy-mode",
              "cluster",
              "--class",
              "com.commscope.eco.Inquire",
              "--jars",
              "s3://eco.inquire.${customer.name}/spark/inquire-32/model-silver-jar-with-dependencies.jar,s3://eco.inquire.${customer.name}/spark/inquire-32/spark-udfs-jar-with-dependencies.jar",
              "--files",
              "s3://eco.inquire.${customer.name}/spark/inquire-32/log4j.properties,s3://eco.inquire.${customer.name}/spark/inquire-32/bronze/application-bronze.json,s3://eco.inquire.${customer.name}/spark/inquire-32/bronze/dailyparams-bronze.json",
              "--driver-java-options",
              "-Dlog4j.configuration=log4j.properties",
              "--driver-java-options",
              "-Dconfig.resource=application-bronze.json",
              "--driver-java-options",
              "-Dconfig.resource=dailyparams-bronze.json",
              "s3://eco.inquire.${customer.name}/spark/inquire-32/data-processor-jar-with-dependencies.jar",
              "application-bronze.json",
              "dailyparams-bronze.json"
            ]
          }
        }
      },
      "Retry": [
        {
          "ErrorEquals": [
            "States.ALL"
          ],
          "IntervalSeconds": 1,
          "MaxAttempts": 0,
          "BackoffRate": 2.0
        }
      ],
      "Catch": [
        {
          "ErrorEquals": [
            "States.ALL"
          ],
          "ResultPath": "$.error-info",
          "Next": "ErrorReporting Bronze Dailyparams"
        }
      ],
      "ResultPath": "$.result",
      "Next": "S3 Move Stage Dailyparams to Processed"
    },
    "ErrorReporting Bronze Dailyparams": {
      "Type": "Task",
      "InputPath": "$",
      "Resource": "arn:aws:lambda:us-east-1:097289183747:function:AlarmMessageHandler",
      "Catch": [
        {
          "ErrorEquals": [
            "States.ALL"
          ],
          "ResultPath": "$.error-info",
          "Next": "S3 Move Stage Dailyparams to Failed"
        }
      ],
      "ResultPath": "$.result",
      "Next": "S3 Move Stage Dailyparams to Failed"
    },
    "S3 Move Stage Dailyparams to Failed": {
      "Type": "Task",
      "Resource": "arn:aws:states:::elasticmapreduce:addStep.sync",
      "Parameters": {
        "ClusterId.$": "$.cluster.ClusterId",
        "Step": {
          "Name": "Move Stage Dailyparams to Failed",
          "ActionOnFailure": "CONTINUE",
          "HadoopJarStep": {
            "Jar": "command-runner.jar",
            "Args": [
              "aws","s3","mv",
              "s3://eco.inquire.${customer.name}/data/deltalake-stage/processing/",
              "s3://eco.inquire.${customer.name}/data/deltalake-stage/failed/dailyparams",
              "--recursive",
              "--exclude","*",
              "--include","dailyparams-*.json.gz"
            ]
          }
        }
      },
      "Retry": [
        {
          "ErrorEquals": [
            "States.ALL"
          ],
          "IntervalSeconds": 1,
          "MaxAttempts": 0,
          "BackoffRate": 2.0
        }
      ],
      "Catch": [
        {
          "ErrorEquals": [
            "States.ALL"
          ],
          "ResultPath": "$.error-info",
          "Next": "Find Stage ElementEvent Data"
        }
      ],
      "ResultPath": "$.result",
      "Next": "Find Stage ElementEvent Data"
    },
    "S3 Move Stage Dailyparams to Processed": {
      "Type": "Task",
      "Resource": "arn:aws:states:::elasticmapreduce:addStep.sync",
      "Parameters": {
        "ClusterId.$": "$.cluster.ClusterId",
        "Step": {
          "Name": "Move Stage Dailyparams to Processed",
          "ActionOnFailure": "CONTINUE",
          "HadoopJarStep": {
            "Jar": "command-runner.jar",
            "Args": [
              "aws","s3","mv",
              "s3://eco.inquire.${customer.name}/data/deltalake-stage/processing/",
              "s3://eco.inquire.${customer.name}/data/deltalake-stage/processed/dailyparams",
              "--recursive",
              "--exclude","*",
              "--include","dailyparams-*.json.gz"
            ]
          }
        }
      },
      "Retry": [
        {
          "ErrorEquals": [
            "States.ALL"
          ],
          "IntervalSeconds": 1,
          "MaxAttempts": 0,
          "BackoffRate": 2.0
        }
      ],
      "Catch": [
        {
          "ErrorEquals": [
            "States.ALL"
          ],
          "ResultPath": "$.error-info",
          "Next": "Run Silver Dailyparams"
        }
      ],
      "ResultPath": "$.result",
      "Next": "Run Silver Dailyparams"
    },
    "Run Silver Dailyparams": {
      "Type": "Task",
      "Resource": "arn:aws:states:::elasticmapreduce:addStep.sync",
      "Parameters": {
        "ClusterId.$": "$.cluster.ClusterId",
        "Step": {
          "Name": "Silver Dailyparams",
          "ActionOnFailure": "CONTINUE",
          "HadoopJarStep": {
            "Jar": "command-runner.jar",
            "Args": [
              "spark-submit",
              "--deploy-mode",
              "cluster",
              "--class",
              "com.commscope.eco.Inquire",
              "--jars",
              "s3://eco.inquire.${customer.name}/spark/inquire-32/model-silver-jar-with-dependencies.jar,s3://eco.inquire.${customer.name}/spark/inquire-32/spark-udfs-jar-with-dependencies.jar",
              "--files",
              "s3://eco.inquire.${customer.name}/spark/inquire-32/log4j.properties,s3://eco.inquire.${customer.name}/spark/inquire-32/silver/application-silver.json,s3://eco.inquire.${customer.name}/spark/inquire-32/silver/dailyparams-silver.json",
              "--driver-java-options",
              "-Dlog4j.configuration=log4j.properties",
              "--driver-java-options",
              "-Dconfig.resource=application-silver.json",
              "--driver-java-options",
              "-Dconfig.resource=dailyparams-silver.json",
              "s3://eco.inquire.${customer.name}/spark/inquire-32/data-processor-jar-with-dependencies.jar",
              "application-silver.json",
              "dailyparams-silver.json"
            ]
          }
        }
      },
      "Retry": [
        {
          "ErrorEquals": [
            "States.ALL"
          ],
          "IntervalSeconds": 1,
          "MaxAttempts": 0,
          "BackoffRate": 2.0
        }
      ],
      "Catch": [
        {
          "ErrorEquals": [
            "States.ALL"
          ],
          "ResultPath": "$.error-info",
          "Next": "ErrorReporting Silver Dailyparams"
        }
      ],
      "ResultPath": "$.result",
      "Next": "Move Inproc Silver Devices to warehouse"
    },
    "ErrorReporting Silver Dailyparams": {
      "Type": "Task",
      "InputPath": "$",
      "Resource": "arn:aws:lambda:us-east-1:097289183747:function:AlarmMessageHandler",
      "Catch": [
        {
          "ErrorEquals": [
            "States.ALL"
          ],
          "ResultPath": "$.error-info",
          "Next": "Move Inproc Silver Devices to warehouse"
        }
      ],
      "ResultPath": "$.result",
      "Next": "Move Inproc Silver Devices to warehouse"
    },
    "Move Inproc Silver Devices to warehouse": {
      "Type": "Task",
      "Resource": "arn:aws:states:::elasticmapreduce:addStep.sync",
      "Parameters": {
        "ClusterId.$": "$.cluster.ClusterId",
        "Step": {
          "Name": "Move Inproc Silver Devices to warehouse",
          "ActionOnFailure": "CONTINUE",
          "HadoopJarStep": {
            "Jar": "command-runner.jar",
            "Args": [
              "aws","s3","mv",
              "s3://eco.inquire.${customer.name}/warehouse-inproc/silver/device",
              "s3://eco.inquire.${customer.name}/warehouse/silver/device",
              "--recursive"
            ]
          }
        }
      },
      "Retry": [
        {
          "ErrorEquals": [
            "States.ALL"
          ],
          "IntervalSeconds": 1,
          "MaxAttempts": 0,
          "BackoffRate": 2.0
        }
      ],
      "Catch": [
        {
          "ErrorEquals": [
            "States.ALL"
          ],
          "ResultPath": "$.error-info",
          "Next": "Create Gold Device Population"
        }
      ],
      "ResultPath": "$.result",
      "Next": "Create Gold Device Population"
    },
    "Create Gold Device Population": {
      "Type": "Task",
      "Resource": "arn:aws:states:::elasticmapreduce:addStep.sync",
      "Parameters": {
        "ClusterId.$": "$.cluster.ClusterId",
        "Step": {
          "Name": "Create Gold Device Population",
          "ActionOnFailure": "CONTINUE",
          "HadoopJarStep": {
            "Jar": "command-runner.jar",
            "Args": [
              "spark-submit",
              "--deploy-mode",
              "cluster",
              "--class",
              "com.commscope.eco.DataExporter",
              "--files",
              "s3://eco.inquire.${customer.name}/spark/inquire-32/log4j.properties",
              "--driver-java-options",
              "-Dlog4j.configuration=log4j.properties",
              "s3://eco.inquire.${customer.name}/spark/inquire-32/data-processor-jar-with-dependencies.jar",
              "table==subscriber=s3://eco.inquire.${customer.name}/warehouse/gold/subscriber_population",
              "table==device=s3://eco.inquire.${customer.name}/warehouse/silver/device",
              "query==select d.device_id, d.subscriber_id, d.oui, to_timestamp(from_unixtime(d.created/1000)) ts_created, to_timestamp(from_unixtime(d.ts/1000)) ts_updated, d.serial_number, d.acs_url, d. device_type, d.mac_address, d.device_manufacturer, d.device_model, d.hardware_version, d.software_version, d.product_class, d.provisioning_code, d.time_zone, d.hnc_enable, to_timestamp(from_unixtime(d.first_inform/1000)) first_inform, to_timestamp(from_unixtime(d.last_inform/1000)) last_inform, to_timestamp(from_unixtime(d.last_boot/1000)) last_boot, s.zip, s.city, s.state, s.country from (select *, rank from (select *, row_number() over (partition by device_id order by ts desc) rank from device) tmp where rank =1) d left join subscriber s on (d.subscriber_id = s.subscriber_id)",
              "output_location==s3://eco.inquire.${customer.name}/warehouse/gold/device_population",
              "mode==overwrite",
              "format==parquet"
            ]
          }
        }
      },
      "Retry": [
        {
          "ErrorEquals": [
            "States.ALL"
          ],
          "IntervalSeconds": 1,
          "MaxAttempts": 0,
          "BackoffRate": 2.0
        }
      ],
      "Catch": [
        {
          "ErrorEquals": [
            "States.ALL"
          ],
          "ResultPath": "$.error-info",
          "Next": "ErrorReporting Gold Device Population"
        }
      ],
      "ResultPath": "$.result",
      "Next": "Create Gold Device Population CSV"
    },
    "ErrorReporting Gold Device Population": {
      "Type": "Task",
      "InputPath": "$",
      "Resource": "arn:aws:lambda:us-east-1:097289183747:function:AlarmMessageHandler",
      "Catch": [
        {
          "ErrorEquals": [
            "States.ALL"
          ],
          "ResultPath": "$.error-info",
          "Next": "Find Stage ElementEvent Data"
        }
      ],
      "ResultPath": "$.result",
      "Next": "Find Stage ElementEvent Data"
    },
    "Create Gold Device Population CSV": {
      "Type": "Task",
      "Resource": "arn:aws:states:::elasticmapreduce:addStep.sync",
      "Parameters": {
        "ClusterId.$": "$.cluster.ClusterId",
        "Step": {
          "Name": "Create Gold Device Population CSV",
          "ActionOnFailure": "CONTINUE",
          "HadoopJarStep": {
            "Jar": "command-runner.jar",
            "Args": [
              "spark-submit",
              "--deploy-mode",
              "cluster",
              "--class",
              "com.commscope.eco.DataExporter",
              "--files",
              "s3://eco.inquire.${customer.name}/spark/inquire-32/log4j.properties",
              "--driver-java-options",
              "-Dlog4j.configuration=log4j.properties",
              "s3://eco.inquire.${customer.name}/spark/inquire-32/data-processor-jar-with-dependencies.jar",
              "table==device=s3://eco.inquire.${customer.name}/warehouse/gold/device_population",
              "query==select * from device",
              "output_location==s3://eco.inquire.${customer.name}/warehouse/gold/csv/device_population",
              "format==csv",
              "mode==overwrite"
            ]
          }
        }
      },
      "Retry": [
        {
          "ErrorEquals": [
            "States.ALL"
          ],
          "IntervalSeconds": 1,
          "MaxAttempts": 0,
          "BackoffRate": 2.0
        }
      ],
      "Catch": [
        {
          "ErrorEquals": [
            "States.ALL"
          ],
          "ResultPath": "$.error-info",
          "Next": "ErrorReporting Gold Device Population CSV"
        }
      ],
      "ResultPath": "$.result",
      "Next": "Find Stage ElementEvent Data"
    },
    "ErrorReporting Gold Device Population CSV": {
      "Type": "Task",
      "InputPath": "$",
      "Resource": "arn:aws:lambda:us-east-1:097289183747:function:AlarmMessageHandler",
      "Catch": [
        {
          "ErrorEquals": [
            "States.ALL"
          ],
          "ResultPath": "$.error-info",
          "Next": "Find Stage ElementEvent Data"
        }
      ],
      "ResultPath": "$.result",
      "Next": "Find Stage ElementEvent Data"
    },

    "Find Stage ElementEvent Data": {
      "Type": "Task",
      "Parameters": {
        "bucket": "eco.inquire.${customer.name}",
        "path": "data/deltalake-stage/processing/element-event-"
      },
      "Resource": "arn:aws:lambda:us-east-1:097289183747:function:CheckS3DataFun",
      "Catch": [
        {
          "ErrorEquals": [
            "States.ALL"
          ],
          "ResultPath": "$.error-info",
          "Next": "ErrorReporting NoStageElementEventData"
        }
      ],
      "ResultPath": "$.result",
      "Next": "Run Bronze ElementEvent"
    },
    "ErrorReporting NoStageElementEventData": {
      "Type": "Task",
      "InputPath": "$",
      "Resource": "arn:aws:lambda:us-east-1:097289183747:function:AlarmMessageHandler",
      "Catch": [
        {
          "ErrorEquals": [
            "States.ALL"
          ],
          "ResultPath": "$.error-info",
          "Next": "Find Stage HostTable Data"
        }
      ],
      "ResultPath": "$.error-info",
      "Next": "Find Stage HostTable Data"
    },
    "Run Bronze ElementEvent": {
      "Type": "Task",
      "Resource": "arn:aws:states:::elasticmapreduce:addStep.sync",
      "Parameters": {
        "ClusterId.$": "$.cluster.ClusterId",
        "Step": {
          "Name": "Bronze ElementEvent",
          "ActionOnFailure": "CONTINUE",
          "HadoopJarStep": {
            "Jar": "command-runner.jar",
            "Args": [
              "spark-submit",
              "--deploy-mode",
              "cluster",
              "--class",
              "com.commscope.eco.Inquire",
              "--jars",
              "s3://eco.inquire.${customer.name}/spark/inquire-32/model-silver-jar-with-dependencies.jar,s3://eco.inquire.${customer.name}/spark/inquire-32/spark-udfs-jar-with-dependencies.jar",
              "--files",
              "s3://eco.inquire.${customer.name}/spark/inquire-32/log4j.properties,s3://eco.inquire.${customer.name}/spark/inquire-32/bronze/application-bronze.json,s3://eco.inquire.${customer.name}/spark/inquire-32/bronze/element-event-bronze.json",
              "--driver-java-options",
              "-Dlog4j.configuration=log4j.properties",
              "--driver-java-options",
              "-Dconfig.resource=application-bronze.json",
              "--driver-java-options",
              "-Dconfig.resource=element-event-bronze.json",
              "s3://eco.inquire.${customer.name}/spark/inquire-32/data-processor-jar-with-dependencies.jar",
              "application-bronze.json",
              "element-event-bronze.json"
            ]
          }
        }
      },
      "Retry": [
        {
          "ErrorEquals": [
            "States.ALL"
          ],
          "IntervalSeconds": 1,
          "MaxAttempts": 0,
          "BackoffRate": 2.0
        }
      ],
      "Catch": [
        {
          "ErrorEquals": [
            "States.ALL"
          ],
          "ResultPath": "$.error-info",
          "Next": "ErrorReporting Bronze ElementEvent"
        }
      ],
      "ResultPath": "$.result",
      "Next": "S3 Move Stage ElementEvent to Processed"
    },
    "ErrorReporting Bronze ElementEvent": {
      "Type": "Task",
      "InputPath": "$",
      "Resource": "arn:aws:lambda:us-east-1:097289183747:function:AlarmMessageHandler",
      "Catch": [
        {
          "ErrorEquals": [
            "States.ALL"
          ],
          "ResultPath": "$.error-info",
          "Next": "S3 Move Stage ElementEvent to Failed"
        }
      ],
      "ResultPath": "$.result",
      "Next": "S3 Move Stage ElementEvent to Failed"
    },
    "S3 Move Stage ElementEvent to Failed": {
      "Type": "Task",
      "Resource": "arn:aws:states:::elasticmapreduce:addStep.sync",
      "Parameters": {
        "ClusterId.$": "$.cluster.ClusterId",
        "Step": {
          "Name": "Move Stage ElementEvent to Failed",
          "ActionOnFailure": "CONTINUE",
          "HadoopJarStep": {
            "Jar": "command-runner.jar",
            "Args": [
              "aws","s3","mv",
              "s3://eco.inquire.${customer.name}/data/deltalake-stage/processing/",
              "s3://eco.inquire.${customer.name}/data/deltalake-stage/failed/element-event/",
              "--recursive",
              "--exclude","*",
              "--include","element-event-*.json.gz"
            ]
          }
        }
      },
      "Retry": [
        {
          "ErrorEquals": [
            "States.ALL"
          ],
          "IntervalSeconds": 1,
          "MaxAttempts": 0,
          "BackoffRate": 2.0
        }
      ],
      "Catch": [
        {
          "ErrorEquals": [
            "States.ALL"
          ],
          "ResultPath": "$.error-info",
          "Next": "Find Stage HostTable Data"
        }
      ],
      "ResultPath": "$.result",
      "Next": "Find Stage HostTable Data"
    },
    "S3 Move Stage ElementEvent to Processed": {
      "Type": "Task",
      "Resource": "arn:aws:states:::elasticmapreduce:addStep.sync",
      "Parameters": {
        "ClusterId.$": "$.cluster.ClusterId",
        "Step": {
          "Name": "Move Stage ElementEvent to Processed",
          "ActionOnFailure": "CONTINUE",
          "HadoopJarStep": {
            "Jar": "command-runner.jar",
            "Args": [
              "aws","s3","mv",
              "s3://eco.inquire.${customer.name}/data/deltalake-stage/processing/",
              "s3://eco.inquire.${customer.name}/data/deltalake-stage/processed/element-event",
              "--recursive",
              "--exclude","*",
              "--include","element-event-*.json.gz"
            ]
          }
        }
      },
      "Retry": [
        {
          "ErrorEquals": [
            "States.ALL"
          ],
          "IntervalSeconds": 1,
          "MaxAttempts": 0,
          "BackoffRate": 2.0
        }
      ],
      "Catch": [
        {
          "ErrorEquals": [
            "States.ALL"
          ],
          "ResultPath": "$.error-info",
          "Next": "Run Silver ElementEvent"
        }
      ],
      "ResultPath": "$.result",
      "Next": "Run Silver ElementEvent"
    },
    "Run Silver ElementEvent": {
      "Type": "Task",
      "Resource": "arn:aws:states:::elasticmapreduce:addStep.sync",
      "Parameters": {
        "ClusterId.$": "$.cluster.ClusterId",
        "Step": {
          "Name": "Silver ElementEvent",
          "ActionOnFailure": "CONTINUE",
          "HadoopJarStep": {
            "Jar": "command-runner.jar",
            "Args": [
              "spark-submit",
              "--deploy-mode",
              "cluster",
              "--class",
              "com.commscope.eco.Inquire",
              "--jars",
              "s3://eco.inquire.${customer.name}/spark/inquire-32/model-silver-jar-with-dependencies.jar,s3://eco.inquire.${customer.name}/spark/inquire-32/spark-udfs-jar-with-dependencies.jar",
              "--files",
              "s3://eco.inquire.${customer.name}/spark/inquire-32/log4j.properties,s3://eco.inquire.${customer.name}/spark/inquire-32/silver/application-silver.json,s3://eco.inquire.${customer.name}/spark/inquire-32/silver/element-event-silver.json",
              "--driver-java-options",
              "-Dlog4j.configuration=log4j.properties",
              "--driver-java-options",
              "-Dconfig.resource=application-silver.json",
              "--driver-java-options",
              "-Dconfig.resource=element-event-silver.json",
              "s3://eco.inquire.${customer.name}/spark/inquire-32/data-processor-jar-with-dependencies.jar",
              "application-silver.json",
              "element-event-silver.json"
            ]
          }
        }
      },
      "Retry": [
        {
          "ErrorEquals": [
            "States.ALL"
          ],
          "IntervalSeconds": 1,
          "MaxAttempts": 0,
          "BackoffRate": 2.0
        }
      ],
      "Catch": [
        {
          "ErrorEquals": [
            "States.ALL"
          ],
          "ResultPath": "$.error-info",
          "Next": "ErrorReporting Silver ElementEvent"
        }
      ],
      "ResultPath": "$.result",
      "Next": "Create Gold device-event CSV"
    },
    "ErrorReporting Silver ElementEvent": {
      "Type": "Task",
      "InputPath": "$",
      "Resource": "arn:aws:lambda:us-east-1:097289183747:function:AlarmMessageHandler",
      "Catch": [
        {
          "ErrorEquals": [
            "States.ALL"
          ],
          "ResultPath": "$.error-info",
          "Next": "Create Gold device-event CSV"
        }
      ],
      "ResultPath": "$.result",
      "Next": "Create Gold device-event CSV"
    },
    "Create Gold device-event CSV": {
      "Type": "Task",
      "Resource": "arn:aws:states:::elasticmapreduce:addStep.sync",
      "Parameters": {
        "ClusterId.$": "$.cluster.ClusterId",
        "Step": {
          "Name": "Create Gold device-event CSV",
          "ActionOnFailure": "CONTINUE",
          "HadoopJarStep": {
            "Jar": "command-runner.jar",
            "Args": [
              "spark-submit",
              "--deploy-mode",
              "cluster",
              "--class",
              "com.commscope.eco.DataExporter",
              "--files",
              "s3://eco.inquire.${customer.name}/spark/inquire-32/log4j.properties",
              "--driver-java-options",
              "-Dlog4j.configuration=log4j.properties",
              "s3://eco.inquire.${customer.name}/spark/inquire-32/data-processor-jar-with-dependencies.jar",
              "table==element_event=s3://eco.inquire.${customer.name}/warehouse-inproc/silver/device-event",
              "query==select device_id, type, message, to_timestamp(from_unixtime(ts/1000)) ts, to_timestamp(from_unixtime(round(ts/900000)*900)) ts_norm from element_event",
              "output_location==s3://eco.inquire.${customer.name}/warehouse-inproc/gold/csv/device-event",
              "mode==append",
              "format==csv"
            ]
          }
        }
      },
      "Retry": [
        {
          "ErrorEquals": [
            "States.ALL"
          ],
          "IntervalSeconds": 1,
          "MaxAttempts": 0,
          "BackoffRate": 2.0
        }
      ],
      "Catch": [
        {
          "ErrorEquals": [
            "States.ALL"
          ],
          "ResultPath": "$.error-info",
          "Next": "ErrorReporting Gold device-event CSV"
        }
      ],
      "ResultPath": "$.result",
      "Next": "Find Stage HostTable Data"
    },
    "ErrorReporting Gold device-event CSV": {
      "Type": "Task",
      "InputPath": "$",
      "Resource": "arn:aws:lambda:us-east-1:097289183747:function:AlarmMessageHandler",
      "Catch": [
        {
          "ErrorEquals": [
            "States.ALL"
          ],
          "ResultPath": "$.error-info",
          "Next": "Find Stage HostTable Data"
        }
      ],
      "ResultPath": "$.result",
      "Next": "Find Stage HostTable Data"
    },

    "Find Stage HostTable Data": {
      "Type": "Task",
      "Parameters": {
        "bucket": "eco.inquire.${customer.name}",
        "path": "data/deltalake-stage/processing/host-table-"
      },
      "Resource": "arn:aws:lambda:us-east-1:097289183747:function:CheckS3DataFun",
      "Catch": [
        {
          "ErrorEquals": [
            "States.ALL"
          ],
          "ResultPath": "$.error-info",
          "Next": "ErrorReporting NoStageHostTableData"
        }
      ],
      "ResultPath": "$.result",
      "Next": "Run Bronze HostTable"
    },
    "ErrorReporting NoStageHostTableData": {
      "Type": "Task",
      "InputPath": "$",
      "Resource": "arn:aws:lambda:us-east-1:097289183747:function:AlarmMessageHandler",
      "Catch": [
        {
          "ErrorEquals": [
            "States.ALL"
          ],
          "ResultPath": "$.error-info",
          "Next": "Find Stage Firmware Data"
        }
      ],
      "ResultPath": "$.error-info",
      "Next": "Find Stage Firmware Data"
    },
    "Run Bronze HostTable": {
      "Type": "Task",
      "Resource": "arn:aws:states:::elasticmapreduce:addStep.sync",
      "Parameters": {
        "ClusterId.$": "$.cluster.ClusterId",
        "Step": {
          "Name": "Bronze HostTable",
          "ActionOnFailure": "CONTINUE",
          "HadoopJarStep": {
            "Jar": "command-runner.jar",
            "Args": [
              "spark-submit",
              "--deploy-mode",
              "cluster",
              "--class",
              "com.commscope.eco.Inquire",
              "--jars",
              "s3://eco.inquire.${customer.name}/spark/inquire-32/model-silver-jar-with-dependencies.jar,s3://eco.inquire.${customer.name}/spark/inquire-32/spark-udfs-jar-with-dependencies.jar",
              "--files",
              "s3://eco.inquire.${customer.name}/spark/inquire-32/log4j.properties,s3://eco.inquire.${customer.name}/spark/inquire-32/bronze/application-bronze.json,s3://eco.inquire.${customer.name}/spark/inquire-32/bronze/host-table-bronze.json",
              "--driver-java-options",
              "-Dlog4j.configuration=log4j.properties",
              "--driver-java-options",
              "-Dconfig.resource=application-bronze.json",
              "--driver-java-options",
              "-Dconfig.resource=host-table-bronze.json",
              "s3://eco.inquire.${customer.name}/spark/inquire-32/data-processor-jar-with-dependencies.jar",
              "application-bronze.json",
              "host-table-bronze.json"
            ]
          }
        }
      },
      "Retry": [
        {
          "ErrorEquals": [
            "States.ALL"
          ],
          "IntervalSeconds": 1,
          "MaxAttempts": 0,
          "BackoffRate": 2.0
        }
      ],
      "Catch": [
        {
          "ErrorEquals": [
            "States.ALL"
          ],
          "ResultPath": "$.error-info",
          "Next": "ErrorReporting Bronze HostTable"
        }
      ],
      "ResultPath": "$.result",
      "Next": "S3 Move Stage HostTable to Processed"
    },
    "ErrorReporting Bronze HostTable": {
      "Type": "Task",
      "InputPath": "$",
      "Resource": "arn:aws:lambda:us-east-1:097289183747:function:AlarmMessageHandler",
      "Catch": [
        {
          "ErrorEquals": [
            "States.ALL"
          ],
          "ResultPath": "$.error-info",
          "Next": "S3 Move Stage HostTable to Failed"
        }
      ],
      "ResultPath": "$.result",
      "Next": "S3 Move Stage HostTable to Failed"
    },
    "S3 Move Stage HostTable to Failed": {
      "Type": "Task",
      "Resource": "arn:aws:states:::elasticmapreduce:addStep.sync",
      "Parameters": {
        "ClusterId.$": "$.cluster.ClusterId",
        "Step": {
          "Name": "Move Stage HostTable to Failed",
          "ActionOnFailure": "CONTINUE",
          "HadoopJarStep": {
            "Jar": "command-runner.jar",
            "Args": [
              "aws","s3","mv",
              "s3://eco.inquire.${customer.name}/data/deltalake-stage/processing/",
              "s3://eco.inquire.${customer.name}/data/deltalake-stage/failed/host-table/",
              "--recursive",
              "--exclude","*",
              "--include","host-table-*.json.gz"
            ]
          }
        }
      },
      "Retry": [
        {
          "ErrorEquals": [
            "States.ALL"
          ],
          "IntervalSeconds": 1,
          "MaxAttempts": 0,
          "BackoffRate": 2.0
        }
      ],
      "Catch": [
        {
          "ErrorEquals": [
            "States.ALL"
          ],
          "ResultPath": "$.error-info",
          "Next": "Find Stage Firmware Data"
        }
      ],
      "ResultPath": "$.result",
      "Next": "Find Stage Firmware Data"
    },
    "S3 Move Stage HostTable to Processed": {
      "Type": "Task",
      "Resource": "arn:aws:states:::elasticmapreduce:addStep.sync",
      "Parameters": {
        "ClusterId.$": "$.cluster.ClusterId",
        "Step": {
          "Name": "Move Stage HostTable to Processed",
          "ActionOnFailure": "CONTINUE",
          "HadoopJarStep": {
            "Jar": "command-runner.jar",
            "Args": [
              "aws","s3","mv",
              "s3://eco.inquire.${customer.name}/data/deltalake-stage/processing/",
              "s3://eco.inquire.${customer.name}/data/deltalake-stage/processed/host-table/",
              "--recursive",
              "--exclude","*",
              "--include","host-table-*.json.gz"
            ]
          }
        }
      },
      "Retry": [
        {
          "ErrorEquals": [
            "States.ALL"
          ],
          "IntervalSeconds": 1,
          "MaxAttempts": 0,
          "BackoffRate": 2.0
        }
      ],
      "Catch": [
        {
          "ErrorEquals": [
            "States.ALL"
          ],
          "ResultPath": "$.error-info",
          "Next": "Run Silver HostTable"
        }
      ],
      "ResultPath": "$.result",
      "Next": "Run Silver HostTable"
    },
    "Run Silver HostTable": {
      "Type": "Task",
      "Resource": "arn:aws:states:::elasticmapreduce:addStep.sync",
      "Parameters": {
        "ClusterId.$": "$.cluster.ClusterId",
        "Step": {
          "Name": "Silver HostTable",
          "ActionOnFailure": "CONTINUE",
          "HadoopJarStep": {
            "Jar": "command-runner.jar",
            "Args": [
              "spark-submit",
              "--deploy-mode",
              "cluster",
              "--class",
              "com.commscope.eco.Inquire",
              "--jars",
              "s3://eco.inquire.${customer.name}/spark/inquire-32/model-silver-jar-with-dependencies.jar,s3://eco.inquire.${customer.name}/spark/inquire-32/spark-udfs-jar-with-dependencies.jar",
              "--files",
              "s3://eco.inquire.${customer.name}/spark/inquire-32/log4j.properties,s3://eco.inquire.${customer.name}/spark/inquire-32/silver/application-silver.json,s3://eco.inquire.${customer.name}/spark/inquire-32/silver/host-table-silver.json",
              "--driver-java-options",
              "-Dlog4j.configuration=log4j.properties",
              "--driver-java-options",
              "-Dconfig.resource=application-silver.json",
              "--driver-java-options",
              "-Dconfig.resource=host-table-silver.json",
              "s3://eco.inquire.${customer.name}/spark/inquire-32/data-processor-jar-with-dependencies.jar",
              "application-silver.json",
              "host-table-silver.json"
            ]
          }
        }
      },
      "Retry": [
        {
          "ErrorEquals": [
            "States.ALL"
          ],
          "IntervalSeconds": 1,
          "MaxAttempts": 0,
          "BackoffRate": 2.0
        }
      ],
      "Catch": [
        {
          "ErrorEquals": [
            "States.ALL"
          ],
          "ResultPath": "$.error-info",
          "Next": "ErrorReporting Silver HostTable"
        }
      ],
      "ResultPath": "$.result",
      "Next": "Run Gold Client"
    },
    "ErrorReporting Silver HostTable": {
      "Type": "Task",
      "InputPath": "$",
      "Resource": "arn:aws:lambda:us-east-1:097289183747:function:AlarmMessageHandler",
      "Catch": [
        {
          "ErrorEquals": [
            "States.ALL"
          ],
          "ResultPath": "$.error-info",
          "Next": "Run Gold Client"
        }
      ],
      "ResultPath": "$.result",
      "Next": "Run Gold Client"
    },
    "Run Gold Client": {
      "Type": "Task",
      "Resource": "arn:aws:states:::elasticmapreduce:addStep.sync",
      "Parameters": {
        "ClusterId.$": "$.cluster.ClusterId",
        "Step": {
          "Name": "Run Gold Client",
          "ActionOnFailure": "CONTINUE",
          "HadoopJarStep": {
            "Jar": "command-runner.jar",
            "Args": [
              "spark-submit",
              "--deploy-mode",
              "cluster",
              "--class",
              "com.commscope.eco.Inquire",
              "--jars",
              "s3://eco.inquire.${customer.name}/spark/inquire-32/model-silver-jar-with-dependencies.jar,s3://eco.inquire.${customer.name}/spark/inquire-32/spark-udfs-jar-with-dependencies.jar",
              "--files",
              "s3://eco.inquire.${customer.name}/spark/inquire-32/log4j.properties,s3://eco.inquire.${customer.name}/spark/inquire-32/gold/application-gold.json,s3://eco.inquire.${customer.name}/spark/inquire-32/gold/client-gold.json",
              "--driver-java-options",
              "-Dlog4j.configuration=log4j.properties",
              "--driver-java-options",
              "-Dconfig.resource=application-gold.json",
              "--driver-java-options",
              "-Dconfig.resource=client-gold.json",
              "s3://eco.inquire.${customer.name}/spark/inquire-32/data-processor-jar-with-dependencies.jar",
              "application-gold.json",
              "client-gold.json"
            ]
          }
        }
      },
      "Retry": [
        {
          "ErrorEquals": [
            "States.ALL"
          ],
          "IntervalSeconds": 1,
          "MaxAttempts": 0,
          "BackoffRate": 2.0
        }
      ],
      "Catch": [
        {
          "ErrorEquals": [
            "States.ALL"
          ],
          "ResultPath": "$.error-info",
          "Next": "ErrorReporting Gold Client"
        }
      ],
      "ResultPath": "$.result",
      "Next": "Create Gold Client CSV"
    },
    "ErrorReporting Gold Client": {
      "Type": "Task",
      "InputPath": "$",
      "Resource": "arn:aws:lambda:us-east-1:097289183747:function:AlarmMessageHandler",
      "ResultPath": "$.result",
      "Next": "Create Gold Client CSV"
    },
    "Create Gold Client CSV": {
      "Type": "Task",
      "Resource": "arn:aws:states:::elasticmapreduce:addStep.sync",
      "Parameters": {
        "ClusterId.$": "$.cluster.ClusterId",
        "Step": {
          "Name": "Create Gold Client CSV",
          "ActionOnFailure": "CONTINUE",
          "HadoopJarStep": {
            "Jar": "command-runner.jar",
            "Args": [
              "spark-submit",
              "--deploy-mode",
              "cluster",
              "--class",
              "com.commscope.eco.DataExporter",
              "--files",
              "s3://eco.inquire.${customer.name}/spark/inquire-32/log4j.properties",
              "--driver-java-options",
              "-Dlog4j.configuration=log4j.properties",
              "s3://eco.inquire.${customer.name}/spark/inquire-32/data-processor-jar-with-dependencies.jar",
              "table==clients=s3://eco.inquire.${customer.name}/warehouse-inproc/gold/client",
              "query==select subscriber_id, device_id, active, client_device_type, client_manufacturer, client_category, CASE WHEN interface_type like '%MoCA%' THEN 'MoCA' WHEN interface_type = '802.11' OR interface_type like '%Wireless%' OR interface_type like '%WiFi%' THEN 'Wireless' ELSE interface_type END AS interface_type, zip, city, state, country, ts_day, ts_month, ts_year, ts_date, client_count, ts_processed from clients",
              "output_location==s3://eco.inquire.${customer.name}/warehouse-inproc/gold/csv/client",
              "mode==append",
              "format==csv"
            ]
          }
        }
      },
      "Retry": [
        {
          "ErrorEquals": [
            "States.ALL"
          ],
          "IntervalSeconds": 1,
          "MaxAttempts": 0,
          "BackoffRate": 2.0
        }
      ],
      "Catch": [
        {
          "ErrorEquals": [
            "States.ALL"
          ],
          "ResultPath": "$.error-info",
          "Next": "ErrorReporting Gold Client CSV"
        }
      ],
      "ResultPath": "$.result",
      "Next": "Move Inproc Silver Clients to warehouse"
    },
    "ErrorReporting Gold Client CSV": {
      "Type": "Task",
      "InputPath": "$",
      "Resource": "arn:aws:lambda:us-east-1:097289183747:function:AlarmMessageHandler",
      "Catch": [
        {
          "ErrorEquals": [
            "States.ALL"
          ],
          "ResultPath": "$.error-info",
          "Next": "Move Inproc Silver Clients to warehouse"
        }
      ],
      "ResultPath": "$.result",
      "Next": "Move Inproc Silver Clients to warehouse"
    },
    "Move Inproc Silver Clients to warehouse": {
      "Type": "Task",
      "Resource": "arn:aws:states:::elasticmapreduce:addStep.sync",
      "Parameters": {
        "ClusterId.$": "$.cluster.ClusterId",
        "Step": {
          "Name": "Move Inproc Silver Clients to warehouse",
          "ActionOnFailure": "CONTINUE",
          "HadoopJarStep": {
            "Jar": "command-runner.jar",
            "Args": [
              "aws","s3","mv",
              "s3://eco.inquire.${customer.name}/warehouse-inproc/silver/client",
              "s3://eco.inquire.${customer.name}/warehouse/silver/client",
              "--recursive"
            ]
          }
        }
      },
      "Retry": [
        {
          "ErrorEquals": [
            "States.ALL"
          ],
          "IntervalSeconds": 1,
          "MaxAttempts": 0,
          "BackoffRate": 2.0
        }
      ],
      "Catch": [
        {
          "ErrorEquals": [
            "States.ALL"
          ],
          "ResultPath": "$.error-info",
          "Next": "Create Gold Client Population"
        }
      ],
      "ResultPath": "$.result",
      "Next": "Create Gold Client Population"
    },
    "Create Gold Client Population": {
      "Type": "Task",
      "Resource": "arn:aws:states:::elasticmapreduce:addStep.sync",
      "Parameters": {
        "ClusterId.$": "$.cluster.ClusterId",
        "Step": {
          "Name": "Create Gold Client Population",
          "ActionOnFailure": "CONTINUE",
          "HadoopJarStep": {
            "Jar": "command-runner.jar",
            "Args": [
              "spark-submit",
              "--deploy-mode",
              "cluster",
              "--class",
              "com.commscope.eco.DataExporter",
              "--files",
              "s3://eco.inquire.${customer.name}/spark/inquire-32/log4j.properties",
              "--driver-java-options",
              "-Dlog4j.configuration=log4j.properties",
              "s3://eco.inquire.${customer.name}/spark/inquire-32/data-processor-jar-with-dependencies.jar",
              "table==client=s3://eco.inquire.${customer.name}/warehouse/silver/client",
              "query==select distinct device_id,mac_address,client_category,client_device_type,client_manufacturer from client",
              "output_location==s3://eco.inquire.${customer.name}/warehouse/gold/client_population",
              "mode==overwrite",
              "format==parquet"
            ]
          }
        }
      },
      "Retry": [
        {
          "ErrorEquals": [
            "States.ALL"
          ],
          "IntervalSeconds": 1,
          "MaxAttempts": 0,
          "BackoffRate": 2.0
        }
      ],
      "Catch": [
        {
          "ErrorEquals": [
            "States.ALL"
          ],
          "ResultPath": "$.error-info",
          "Next": "ErrorReporting Gold Client Population"
        }
      ],
      "ResultPath": "$.result",
      "Next": "Find Stage Firmware Data"
    },
    "ErrorReporting Gold Client Population": {
      "Type": "Task",
      "InputPath": "$",
      "Resource": "arn:aws:lambda:us-east-1:097289183747:function:AlarmMessageHandler",
      "Catch": [
        {
          "ErrorEquals": [
            "States.ALL"
          ],
          "ResultPath": "$.error-info",
          "Next": "Find Stage Firmware Data"
        }
      ],
      "ResultPath": "$.result",
      "Next": "Find Stage Firmware Data"
    },

    "Find Stage Firmware Data": {
      "Type": "Task",
      "Parameters": {
        "bucket": "eco.inquire.${customer.name}",
        "path": "data/deltalake-stage/processing/firmware-"
      },
      "Resource": "arn:aws:lambda:us-east-1:097289183747:function:CheckS3DataFun",
      "Catch": [
        {
          "ErrorEquals": [
            "States.ALL"
          ],
          "ResultPath": "$.error-info",
          "Next": "ErrorReporting NoStageFirmwareData"
        }
      ],
      "ResultPath": "$.result",
      "Next": "Run Bronze Firmware"
    },
    "ErrorReporting NoStageFirmwareData": {
      "Type": "Task",
      "InputPath": "$",
      "Resource": "arn:aws:lambda:us-east-1:097289183747:function:AlarmMessageHandler",
      "Catch": [
        {
          "ErrorEquals": [
            "States.ALL"
          ],
          "ResultPath": "$.error-info",
          "Next": "Find Stage ElementTs Data"
        }
      ],
      "ResultPath": "$.error-info",
      "Next": "Find Stage ElementTs Data"
    },
    "Run Bronze Firmware": {
      "Type": "Task",
      "Resource": "arn:aws:states:::elasticmapreduce:addStep.sync",
      "Parameters": {
        "ClusterId.$": "$.cluster.ClusterId",
        "Step": {
          "Name": "Bronze Firmware",
          "ActionOnFailure": "CONTINUE",
          "HadoopJarStep": {
            "Jar": "command-runner.jar",
            "Args": [
              "spark-submit",
              "--deploy-mode",
              "cluster",
              "--class",
              "com.commscope.eco.Inquire",
              "--jars",
              "s3://eco.inquire.${customer.name}/spark/inquire-32/model-silver-jar-with-dependencies.jar,s3://eco.inquire.${customer.name}/spark/inquire-32/spark-udfs-jar-with-dependencies.jar",
              "--files",
              "s3://eco.inquire.${customer.name}/spark/inquire-32/log4j.properties,s3://eco.inquire.${customer.name}/spark/inquire-32/bronze/application-bronze.json,s3://eco.inquire.${customer.name}/spark/inquire-32/bronze/firmware-bronze.json",
              "--driver-java-options",
              "-Dlog4j.configuration=log4j.properties",
              "--driver-java-options",
              "-Dconfig.resource=application-bronze.json",
              "--driver-java-options",
              "-Dconfig.resource=firmware-bronze.json",
              "s3://eco.inquire.${customer.name}/spark/inquire-32/data-processor-jar-with-dependencies.jar",
              "application-bronze.json",
              "firmware-bronze.json"
            ]
          }
        }
      },
      "Retry": [
        {
          "ErrorEquals": [
            "States.ALL"
          ],
          "IntervalSeconds": 1,
          "MaxAttempts": 0,
          "BackoffRate": 2.0
        }
      ],
      "Catch": [
        {
          "ErrorEquals": [
            "States.ALL"
          ],
          "ResultPath": "$.error-info",
          "Next": "ErrorReporting Bronze Firmware"
        }
      ],
      "ResultPath": "$.result",
      "Next": "S3 Move Stage Firmware to Processed"
    },
    "ErrorReporting Bronze Firmware": {
      "Type": "Task",
      "InputPath": "$",
      "Resource": "arn:aws:lambda:us-east-1:097289183747:function:AlarmMessageHandler",
      "Catch": [
        {
          "ErrorEquals": [
            "States.ALL"
          ],
          "ResultPath": "$.error-info",
          "Next": "S3 Move Stage Firmware to Failed"
        }
      ],
      "ResultPath": "$.result",
      "Next": "S3 Move Stage Firmware to Failed"
    },
    "S3 Move Stage Firmware to Failed": {
      "Type": "Task",
      "Resource": "arn:aws:states:::elasticmapreduce:addStep.sync",
      "Parameters": {
        "ClusterId.$": "$.cluster.ClusterId",
        "Step": {
          "Name": "Move Stage Firmware to Failed",
          "ActionOnFailure": "CONTINUE",
          "HadoopJarStep": {
            "Jar": "command-runner.jar",
            "Args": [
              "aws","s3","mv",
              "s3://eco.inquire.${customer.name}/data/deltalake-stage/processing/",
              "s3://eco.inquire.${customer.name}/data/deltalake-stage/failed/firmware/",
              "--recursive",
              "--exclude","*",
              "--include","firmware-*.json.gz"
            ]
          }
        }
      },
      "Retry": [
        {
          "ErrorEquals": [
            "States.ALL"
          ],
          "IntervalSeconds": 1,
          "MaxAttempts": 0,
          "BackoffRate": 2.0
        }
      ],
      "Catch": [
        {
          "ErrorEquals": [
            "States.ALL"
          ],
          "ResultPath": "$.error-info",
          "Next": "Find Stage ElementTs Data"
        }
      ],
      "ResultPath": "$.result",
      "Next": "Find Stage ElementTs Data"
    },
    "S3 Move Stage Firmware to Processed": {
      "Type": "Task",
      "Resource": "arn:aws:states:::elasticmapreduce:addStep.sync",
      "Parameters": {
        "ClusterId.$": "$.cluster.ClusterId",
        "Step": {
          "Name": "Move Stage Firmware to Processed",
          "ActionOnFailure": "CONTINUE",
          "HadoopJarStep": {
            "Jar": "command-runner.jar",
            "Args": [
              "aws","s3","mv",
              "s3://eco.inquire.${customer.name}/data/deltalake-stage/processing/",
              "s3://eco.inquire.${customer.name}/data/deltalake-stage/processed/firmware/",
              "--recursive",
              "--exclude","*",
              "--include","firmware-*.json.gz"
            ]
          }
        }
      },
      "Retry": [
        {
          "ErrorEquals": [
            "States.ALL"
          ],
          "IntervalSeconds": 1,
          "MaxAttempts": 0,
          "BackoffRate": 2.0
        }
      ],
      "Catch": [
        {
          "ErrorEquals": [
            "States.ALL"
          ],
          "ResultPath": "$.error-info",
          "Next": "Run Silver Firmware"
        }
      ],
      "ResultPath": "$.result",
      "Next": "Run Silver Firmware"
    },
    "Run Silver Firmware": {
      "Type": "Task",
      "Resource": "arn:aws:states:::elasticmapreduce:addStep.sync",
      "Parameters": {
        "ClusterId.$": "$.cluster.ClusterId",
        "Step": {
          "Name": "Silver Firmware",
          "ActionOnFailure": "CONTINUE",
          "HadoopJarStep": {
            "Jar": "command-runner.jar",
            "Args": [
              "spark-submit",
              "--deploy-mode",
              "cluster",
              "--class",
              "com.commscope.eco.Inquire",
              "--jars",
              "s3://eco.inquire.${customer.name}/spark/inquire-32/model-silver-jar-with-dependencies.jar,s3://eco.inquire.${customer.name}/spark/inquire-32/spark-udfs-jar-with-dependencies.jar",
              "--files",
              "s3://eco.inquire.${customer.name}/spark/inquire-32/log4j.properties,s3://eco.inquire.${customer.name}/spark/inquire-32/silver/application-silver.json,s3://eco.inquire.${customer.name}/spark/inquire-32/silver/firmware-silver.json",
              "--driver-java-options",
              "-Dlog4j.configuration=log4j.properties",
              "--driver-java-options",
              "-Dconfig.resource=application-silver.json",
              "--driver-java-options",
              "-Dconfig.resource=firmware-silver.json",
              "s3://eco.inquire.${customer.name}/spark/inquire-32/data-processor-jar-with-dependencies.jar",
              "application-silver.json",
              "firmware-silver.json"
            ]
          }
        }
      },
      "Retry": [
        {
          "ErrorEquals": [
            "States.ALL"
          ],
          "IntervalSeconds": 1,
          "MaxAttempts": 0,
          "BackoffRate": 2.0
        }
      ],
      "Catch": [
        {
          "ErrorEquals": [
            "States.ALL"
          ],
          "ResultPath": "$.error-info",
          "Next": "ErrorReporting Silver Firmware"
        }
      ],
      "ResultPath": "$.result",
      "Next": "Create Gold Firmware CSV"
    },
    "ErrorReporting Silver Firmware": {
      "Type": "Task",
      "InputPath": "$",
      "Resource": "arn:aws:lambda:us-east-1:097289183747:function:AlarmMessageHandler",
      "Catch": [
        {
          "ErrorEquals": [
            "States.ALL"
          ],
          "ResultPath": "$.error-info",
          "Next": "Create Gold Firmware CSV"
        }
      ],
      "ResultPath": "$.result",
      "Next": "Create Gold Firmware CSV"
    },
    "Create Gold Firmware CSV": {
      "Type": "Task",
      "Resource": "arn:aws:states:::elasticmapreduce:addStep.sync",
      "Parameters": {
        "ClusterId.$": "$.cluster.ClusterId",
        "Step": {
          "Name": "Create Gold Firmware CSV",
          "ActionOnFailure": "CONTINUE",
          "HadoopJarStep": {
            "Jar": "command-runner.jar",
            "Args": [
              "spark-submit",
              "--deploy-mode",
              "cluster",
              "--class",
              "com.commscope.eco.DataExporter",
              "--files",
              "s3://eco.inquire.${customer.name}/spark/inquire-32/log4j.properties",
              "--driver-java-options",
              "-Dlog4j.configuration=log4j.properties",
              "s3://eco.inquire.${customer.name}/spark/inquire-32/data-processor-jar-with-dependencies.jar",
              "table==firmware=s3://eco.inquire.${customer.name}/warehouse-inproc/silver/firmware",
              "query==select device_id element_id, to_timestamp(from_unixtime(enqueued/1000)) enqueued, to_timestamp(from_unixtime(round(enqueued/900000)*900)) enqueued_norm, to_timestamp(from_unixtime(scheduled/1000)) scheduled, to_timestamp(from_unixtime(round(scheduled/900000)*900)) scheduled_norm, to_timestamp(from_unixtime(upgraded/1000)) upgraded, to_timestamp(from_unixtime(round(upgraded/900000)*900)) upgraded_norm, flow_schedule flow_schedule, version from_version, name to_version, status, fault_code, fault_message, to_timestamp(from_unixtime(ts/1000)) ts, to_timestamp(from_unixtime(round(ts/900000)*900)) ts_norm from firmware",
              "output_location==s3://eco.inquire.${customer.name}/warehouse-inproc/gold/csv/firmware",
              "mode==append",
              "format==csv"
            ]
          }
        }
      },
      "Retry": [
        {
          "ErrorEquals": [
            "States.ALL"
          ],
          "IntervalSeconds": 1,
          "MaxAttempts": 0,
          "BackoffRate": 2.0
        }
      ],
      "Catch": [
        {
          "ErrorEquals": [
            "States.ALL"
          ],
          "ResultPath": "$.error-info",
          "Next": "ErrorReporting Gold Firmware CSV"
        }
      ],
      "ResultPath": "$.result",
      "Next": "Find Stage ElementTs Data"
    },
    "ErrorReporting Gold Firmware CSV": {
      "Type": "Task",
      "InputPath": "$",
      "Resource": "arn:aws:lambda:us-east-1:097289183747:function:AlarmMessageHandler",
      "Catch": [
        {
          "ErrorEquals": [
            "States.ALL"
          ],
          "ResultPath": "$.error-info",
          "Next": "Find Stage ElementTs Data"
        }
      ],
      "ResultPath": "$.result",
      "Next": "Find Stage ElementTs Data"
    },

    "Find Stage ElementTs Data": {
      "Type": "Task",
      "Parameters": {
        "bucket": "eco.inquire.${customer.name}",
        "path": "data/deltalake-stage/processing/element-ts-"
      },
      "Resource": "arn:aws:lambda:us-east-1:097289183747:function:CheckS3DataFun",
      "Catch": [
        {
          "ErrorEquals": [
            "States.ALL"
          ],
          "ResultPath": "$.error-info",
          "Next": "ErrorReporting NoStageElementTsData"
        }
      ],
      "ResultPath": "$.result",
      "Next": "Run Bronze ElementTs"
    },
    "ErrorReporting NoStageElementTsData": {
      "Type": "Task",
      "InputPath": "$",
      "Resource": "arn:aws:lambda:us-east-1:097289183747:function:AlarmMessageHandler",
      "Catch": [
        {
          "ErrorEquals": [
            "States.ALL"
          ],
          "ResultPath": "$.error-info",
          "Next": "S3 Move All processed warehouse-inproc to warehouse and Terminate"
        }
      ],
      "ResultPath": "$.error-info",
      "Next": "S3 Move All processed warehouse-inproc to warehouse and Terminate"
    },
    "Run Bronze ElementTs": {
      "Type": "Task",
      "Resource": "arn:aws:states:::elasticmapreduce:addStep.sync",
      "Parameters": {
        "ClusterId.$": "$.cluster.ClusterId",
        "Step": {
          "Name": "Bronze ElementTs",
          "ActionOnFailure": "CONTINUE",
          "HadoopJarStep": {
            "Jar": "command-runner.jar",
            "Args": [
              "spark-submit",
              "--deploy-mode",
              "cluster",
              "--class",
              "com.commscope.eco.Inquire",
              "--jars",
              "s3://eco.inquire.${customer.name}/spark/inquire-32/model-silver-jar-with-dependencies.jar,s3://eco.inquire.${customer.name}/spark/inquire-32/spark-udfs-jar-with-dependencies.jar",
              "--files",
              "s3://eco.inquire.${customer.name}/spark/inquire-32/log4j.properties,s3://eco.inquire.${customer.name}/spark/inquire-32/bronze/application-bronze.json,s3://eco.inquire.${customer.name}/spark/inquire-32/bronze/element-ts-bronze.json",
              "--driver-java-options",
              "-Dlog4j.configuration=log4j.properties",
              "--driver-java-options",
              "-Dconfig.resource=application-bronze.json",
              "--driver-java-options",
              "-Dconfig.resource=element-ts-bronze.json",
              "s3://eco.inquire.${customer.name}/spark/inquire-32/data-processor-jar-with-dependencies.jar",
              "application-bronze.json",
              "element-ts-bronze.json"
            ]
          }
        }
      },
      "Retry": [
        {
          "ErrorEquals": [
            "States.ALL"
          ],
          "IntervalSeconds": 1,
          "MaxAttempts": 0,
          "BackoffRate": 2.0
        }
      ],
      "Catch": [
        {
          "ErrorEquals": [
            "States.ALL"
          ],
          "ResultPath": "$.error-info",
          "Next": "ErrorReporting Bronze ElementTs"
        }
      ],
      "ResultPath": "$.result",
      "Next": "S3 Move Stage ElementTs to Processed"
    },
    "ErrorReporting Bronze ElementTs": {
      "Type": "Task",
      "InputPath": "$",
      "Resource": "arn:aws:lambda:us-east-1:097289183747:function:AlarmMessageHandler",
      "Catch": [
        {
          "ErrorEquals": [
            "States.ALL"
          ],
          "ResultPath": "$.error-info",
          "Next": "S3 Move Stage ElementTs to Failed"
        }
      ],
      "ResultPath": "$.result",
      "Next": "S3 Move Stage ElementTs to Failed"
    },
    "S3 Move Stage ElementTs to Failed": {
      "Type": "Task",
      "Resource": "arn:aws:states:::elasticmapreduce:addStep.sync",
      "Parameters": {
        "ClusterId.$": "$.cluster.ClusterId",
        "Step": {
          "Name": "Move Stage ElementTs to Failed",
          "ActionOnFailure": "CONTINUE",
          "HadoopJarStep": {
            "Jar": "command-runner.jar",
            "Args": [
              "s3-dist-cp",
              "-D s3DistCp.copyfiles.mapper.numWorkers=1",
              "--src=s3://eco.inquire.${customer.name}/data/deltalake-stage/processing",
              "--dest=s3://eco.inquire.${customer.name}/data/deltalake-stage/failed/element-ts",
              "--deleteOnSuccess",
              "--srcPattern=.*element-ts-.*.json.gz"
            ]
          }
        }
      },
      "Retry": [
        {
          "ErrorEquals": [
            "States.ALL"
          ],
          "IntervalSeconds": 1,
          "MaxAttempts": 0,
          "BackoffRate": 2.0
        }
      ],
      "Catch": [
        {
          "ErrorEquals": [
            "States.ALL"
          ],
          "ResultPath": "$.error-info",
          "Next": "S3 Move All processed warehouse-inproc to warehouse and Terminate"
        }
      ],
      "ResultPath": "$.result",
      "Next": "S3 Move All processed warehouse-inproc to warehouse and Terminate"
    },
    "S3 Move Stage ElementTs to Processed": {
      "Type": "Task",
      "Resource": "arn:aws:states:::elasticmapreduce:addStep.sync",
      "Parameters": {
        "ClusterId.$": "$.cluster.ClusterId",
        "Step": {
          "Name": "Move Stage ElementTs to Processed",
          "ActionOnFailure": "CONTINUE",
          "HadoopJarStep": {
            "Jar": "command-runner.jar",
            "Args": [
              "s3-dist-cp",
              "-D s3DistCp.copyfiles.mapper.numWorkers=1",
              "--src=s3://eco.inquire.${customer.name}/data/deltalake-stage/processing",
              "--dest=s3://eco.inquire.${customer.name}/data/deltalake-stage/processed/element-ts",
              "--deleteOnSuccess",
              "--srcPattern=.*element-ts-.*.json.gz"
            ]
          }
        }
      },
      "Retry": [
        {
          "ErrorEquals": [
            "States.ALL"
          ],
          "IntervalSeconds": 1,
          "MaxAttempts": 0,
          "BackoffRate": 2.0
        }
      ],
      "Catch": [
        {
          "ErrorEquals": [
            "States.ALL"
          ],
          "ResultPath": "$.error-info",
          "Next": "Run Silver ElementTs"
        }
      ],
      "ResultPath": "$.result",
      "Next": "Run Silver ElementTs"
    },
    "Run Silver ElementTs": {
      "Type": "Task",
      "Resource": "arn:aws:states:::elasticmapreduce:addStep.sync",
      "Parameters": {
        "ClusterId.$": "$.cluster.ClusterId",
        "Step": {
          "Name": "Silver ElementTs",
          "ActionOnFailure": "CONTINUE",
          "HadoopJarStep": {
            "Jar": "command-runner.jar",
            "Args": [
              "spark-submit",
              "--deploy-mode",
              "cluster",
              "--class",
              "com.commscope.eco.Inquire",
              "--jars",
              "s3://eco.inquire.${customer.name}/spark/inquire-32/model-silver-jar-with-dependencies.jar,s3://eco.inquire.${customer.name}/spark/inquire-32/spark-udfs-jar-with-dependencies.jar",
              "--files",
              "s3://eco.inquire.${customer.name}/spark/inquire-32/log4j.properties,s3://eco.inquire.${customer.name}/spark/inquire-32/silver/application-silver.json,s3://eco.inquire.${customer.name}/spark/inquire-32/silver/element-ts-silver.json",
              "--driver-java-options",
              "-Dlog4j.configuration=log4j.properties",
              "--driver-java-options",
              "-Dconfig.resource=application-silver.json",
              "--driver-java-options",
              "-Dconfig.resource=element-ts-silver.json",
              "s3://eco.inquire.${customer.name}/spark/inquire-32/data-processor-jar-with-dependencies.jar",
              "application-silver.json",
              "element-ts-silver.json"
            ]
          }
        }
      },
      "Retry": [
        {
          "ErrorEquals": [
            "States.ALL"
          ],
          "IntervalSeconds": 1,
          "MaxAttempts": 0,
          "BackoffRate": 2.0
        }
      ],
      "Catch": [
        {
          "ErrorEquals": [
            "States.ALL"
          ],
          "ResultPath": "$.error-info",
          "Next": "ErrorReporting Silver ElementTs"
        }
      ],
      "ResultPath": "$.result",
      "Next": "Run Gold DeviceBW"
    },
    "ErrorReporting Silver ElementTs": {
      "Type": "Task",
      "InputPath": "$",
      "Resource": "arn:aws:lambda:us-east-1:097289183747:function:AlarmMessageHandler",
      "Catch": [
        {
          "ErrorEquals": [
            "States.ALL"
          ],
          "ResultPath": "$.error-info",
          "Next": "Move Inproc Bronze ElementTs to warehouse-reprocess"
        }
      ],
      "ResultPath": "$.result",
      "Next": "Move Inproc Bronze ElementTs to warehouse-reprocess"
    },
    "Move Inproc Bronze ElementTs to warehouse-reprocess": {
      "Type": "Task",
      "Resource": "arn:aws:states:::elasticmapreduce:addStep.sync",
      "Parameters": {
        "ClusterId.$": "$.cluster.ClusterId",
        "Step": {
          "Name": "Move Inproc Bronze ElementTs to warehouse-reprocess",
          "ActionOnFailure": "CONTINUE",
          "HadoopJarStep": {
            "Jar": "command-runner.jar",
            "Args": [
              "aws","s3","mv",
              "s3://eco.inquire.${customer.name}/warehouse-inproc/bronze/element-ts",
              "s3://eco.inquire.${customer.name}/warehouse-reprocess/bronze/element-ts",
              "--recursive"
            ]
          }
        }
      },
      "Retry": [
        {
          "ErrorEquals": [
            "States.ALL"
          ],
          "IntervalSeconds": 1,
          "MaxAttempts": 0,
          "BackoffRate": 2.0
        }
      ],
      "Catch": [
        {
          "ErrorEquals": [
            "States.ALL"
          ],
          "ResultPath": "$.error-info",
          "Next": "S3 Move All processed warehouse-inproc to warehouse and Terminate"
        }
      ],
      "ResultPath": "$.result",
      "Next": "S3 Move All processed warehouse-inproc to warehouse and Terminate"
    },
    "S3 Move All processed warehouse-inproc to warehouse and Terminate": {
      "Type": "Task",
      "Resource": "arn:aws:states:::elasticmapreduce:addStep.sync",
      "Parameters": {
        "ClusterId.$": "$.cluster.ClusterId",
        "Step": {
          "Name": "S3 Move All processed warehouse-inproc to warehouse and Terminate",
          "ActionOnFailure": "CONTINUE",
          "HadoopJarStep": {
            "Jar": "command-runner.jar",
            "Args": [
              "s3-dist-cp",
              "-D s3DistCp.copyfiles.mapper.numWorkers=1",
              "--src=s3://eco.inquire.${customer.name}/warehouse-inproc/",
              "--dest=s3://eco.inquire.${customer.name}/warehouse/",
              "--deleteOnSuccess"
            ]
          }
        }
      },
      "Retry": [
        {
          "ErrorEquals": [
            "States.ALL"
          ],
          "IntervalSeconds": 1,
          "MaxAttempts": 0,
          "BackoffRate": 2.0
        }
      ],
      "Catch": [
        {
          "ErrorEquals": [
            "States.ALL"
          ],
          "ResultPath": "$.error-info",
          "Next": "Terminate EMR Cluster"
        }
      ],
      "ResultPath": "$.result",
      "Next": "Terminate EMR Cluster"
    },
    "Run Gold DeviceBW": {
      "Type": "Task",
      "Resource": "arn:aws:states:::elasticmapreduce:addStep.sync",
      "Parameters": {
        "ClusterId.$": "$.cluster.ClusterId",
        "Step": {
          "Name": "Gold DeviceBW",
          "ActionOnFailure": "CONTINUE",
          "HadoopJarStep": {
            "Jar": "command-runner.jar",
            "Args": [
              "spark-submit",
              "--deploy-mode",
              "cluster",
              "--class",
              "com.commscope.eco.Inquire",
              "--jars",
              "s3://eco.inquire.${customer.name}/spark/inquire-32/model-silver-jar-with-dependencies.jar,s3://eco.inquire.${customer.name}/spark/inquire-32/spark-udfs-jar-with-dependencies.jar",
              "--files",
              "s3://eco.inquire.${customer.name}/spark/inquire-32/log4j.properties,s3://eco.inquire.${customer.name}/spark/inquire-32/gold/application-gold.json,s3://eco.inquire.${customer.name}/spark/inquire-32/gold/deviceBWPipeline.json",
              "--driver-java-options",
              "-Dlog4j.configuration=log4j.properties",
              "--driver-java-options",
              "-Dconfig.resource=application-gold.json",
              "--driver-java-options",
              "-Dconfig.resource=deviceBWPipeline.json",
              "s3://eco.inquire.${customer.name}/spark/inquire-32/data-processor-jar-with-dependencies.jar",
              "application-gold.json",
              "deviceBWPipeline.json"
            ]
          }
        }
      },
      "Retry": [
        {
          "ErrorEquals": [
            "States.ALL"
          ],
          "IntervalSeconds": 1,
          "MaxAttempts": 0,
          "BackoffRate": 2.0
        }
      ],
      "Catch": [
        {
          "ErrorEquals": [
            "States.ALL"
          ],
          "ResultPath": "$.error-info",
          "Next": "ErrorReporting Gold DeviceBW"
        }
      ],
      "ResultPath": "$.result",
      "Next": "Run Gold ClientBW"
    },
    "ErrorReporting Gold DeviceBW": {
      "Type": "Task",
      "InputPath": "$",
      "Resource": "arn:aws:lambda:us-east-1:097289183747:function:AlarmMessageHandler",
      "Catch": [
        {
          "ErrorEquals": [
            "States.ALL"
          ],
          "ResultPath": "$.error-info",
          "Next": "Run Gold ClientBW"
        }
      ],
      "ResultPath": "$.result",
      "Next": "Run Gold ClientBW"
    },
    "Run Gold ClientBW": {
      "Type": "Task",
      "Resource": "arn:aws:states:::elasticmapreduce:addStep.sync",
      "Parameters": {
        "ClusterId.$": "$.cluster.ClusterId",
        "Step": {
          "Name": "Gold ClientBW",
          "ActionOnFailure": "CONTINUE",
          "HadoopJarStep": {
            "Jar": "command-runner.jar",
            "Args": [
              "spark-submit",
              "--deploy-mode",
              "cluster",
              "--class",
              "com.commscope.eco.Inquire",
              "--jars",
              "s3://eco.inquire.${customer.name}/spark/inquire-32/model-silver-jar-with-dependencies.jar,s3://eco.inquire.${customer.name}/spark/inquire-32/spark-udfs-jar-with-dependencies.jar",
              "--files",
              "s3://eco.inquire.${customer.name}/spark/inquire-32/log4j.properties,s3://eco.inquire.${customer.name}/spark/inquire-32/gold/application-gold.json,s3://eco.inquire.${customer.name}/spark/inquire-32/gold/clientBWPipeline.json",
              "--driver-java-options",
              "-Dlog4j.configuration=log4j.properties",
              "--driver-java-options",
              "-Dconfig.resource=application-gold.json",
              "--driver-java-options",
              "-Dconfig.resource=clientBWPipeline.json",
              "s3://eco.inquire.${customer.name}/spark/inquire-32/data-processor-jar-with-dependencies.jar",
              "application-gold.json",
              "clientBWPipeline.json"
            ]
          }
        }
      },
      "Retry": [
        {
          "ErrorEquals": [
            "States.ALL"
          ],
          "IntervalSeconds": 1,
          "MaxAttempts": 0,
          "BackoffRate": 2.0
        }
      ],
      "Catch": [
        {
          "ErrorEquals": [
            "States.ALL"
          ],
          "ResultPath": "$.error-info",
          "Next": "ErrorReporting Gold ClientBW"
        }
      ],
      "ResultPath": "$.result",
      "Next": "S3 Move All warehouse-inproc to warehouse"
    },
    "ErrorReporting Gold ClientBW": {
      "Type": "Task",
      "InputPath": "$",
      "Resource": "arn:aws:lambda:us-east-1:097289183747:function:AlarmMessageHandler",
      "Catch": [
        {
          "ErrorEquals": [
            "States.ALL"
          ],
          "ResultPath": "$.error-info",
          "Next": "S3 Move All warehouse-inproc to warehouse"
        }
      ],
      "ResultPath": "$.result",
      "Next": "S3 Move All warehouse-inproc to warehouse"
    },

    "S3 Move All warehouse-inproc to warehouse": {
      "Type": "Task",
      "Resource": "arn:aws:states:::elasticmapreduce:addStep.sync",
      "Parameters": {
        "ClusterId.$": "$.cluster.ClusterId",
        "Step": {
          "Name": "Merge deltalake warehouse-inproc to warehouse",
          "ActionOnFailure": "CONTINUE",
          "HadoopJarStep": {
            "Jar": "command-runner.jar",
            "Args": [
              "s3-dist-cp",
              "-D s3DistCp.copyfiles.mapper.numWorkers=1",
              "--src=s3://eco.inquire.${customer.name}/warehouse-inproc/",
              "--dest=s3://eco.inquire.${customer.name}/warehouse/",
              "--deleteOnSuccess"
            ]
          }
        }
      },
      "Retry": [
        {
          "ErrorEquals": [
            "States.ALL"
          ],
          "IntervalSeconds": 1,
          "MaxAttempts": 0,
          "BackoffRate": 2.0
        }
      ],
      "Catch": [
        {
          "ErrorEquals": [
            "States.ALL"
          ],
          "ResultPath": "$.error-info",
          "Next": "Terminate EMR Cluster"
        }
      ],
      "ResultPath": "$.result",
      "Next": "Run KPI"
    },

    "Run KPI": {
      "Type": "Task",
      "Resource": "arn:aws:states:::elasticmapreduce:addStep.sync",
      "Parameters": {
        "ClusterId.$": "$.cluster.ClusterId",
        "Step": {
          "Name": "Run KPI",
          "ActionOnFailure": "CONTINUE",
          "HadoopJarStep": {
            "Jar": "command-runner.jar",
            "Args": [
              "spark-submit",
              "--deploy-mode",
              "cluster",
              "--class",
              "com.commscope.eco.inquire.jobs.KPI",
              "--files",
              "s3://eco.inquire.${customer.name}/spark/inquire-32/log4j.properties",
              "--driver-java-options",
              "-Dlog4j.configuration=log4j.properties",
              "s3://eco.inquire.${customer.name}/spark/inquire-32/spark-jobs-jar-with-dependencies.jar",
              "devices_location==s3://eco.inquire.${customer.name}/warehouse/gold/device_population",
              "warehouse_location==s3://eco.inquire.${customer.name}/warehouse",
              "output_location==s3://eco.inquire.${customer.name}/scratchpad/",
              "filter==device_model like 'NVG4%'",
              "kpis==1,2,3a,3b,5,6,7,8",
              "scratchpad_export==false",
              "top_n_by_model==false",
              "ts_date_diff==1"
            ]
          }
        }
      },
      "Retry": [
        {
          "ErrorEquals": [
            "States.ALL"
          ],
          "IntervalSeconds": 1,
          "MaxAttempts": 0,
          "BackoffRate": 2.0
        }
      ],
      "Catch": [
        {
          "ErrorEquals": [
            "States.ALL"
          ],
          "ResultPath": "$.error-info",
          "Next": "ErrorReporting Run KPI"
        }
      ],
      "ResultPath": "$.result",
      "Next": "Terminate EMR Cluster"
    },
    "ErrorReporting Run KPI": {
      "Type": "Task",
      "InputPath": "$",
      "Resource": "arn:aws:lambda:us-east-1:097289183747:function:AlarmMessageHandler",
      "Catch": [
        {
          "ErrorEquals": [
            "States.ALL"
          ],
          "ResultPath": "$.error-info",
          "Next": "Terminate EMR Cluster"
        }
      ],
      "ResultPath": "$.result",
      "Next": "Terminate EMR Cluster"
    },

    "Terminate EMR Cluster and Fail": {
      "Type": "Task",
      "Resource": "arn:aws:states:::elasticmapreduce:terminateCluster",
      "Parameters": {
        "ClusterId.$": "$.cluster.ClusterId"
      },
      "Retry": [
        {
          "ErrorEquals": [
            "States.ALL"
          ],
          "IntervalSeconds": 1,
          "MaxAttempts": 2,
          "BackoffRate": 2.0
        }
      ],
      "Catch": [
        {
          "ErrorEquals": [
            "States.ALL"
          ],
          "ResultPath": "$.error-info",
          "Next": "ErrorReporting WorkflowFailure"
        }
      ],
      "ResultPath": "$.result",
      "Next": "ErrorReporting WorkflowFailure"
    },
    "Terminate EMR Cluster": {
      "Type": "Task",
      "Resource": "arn:aws:states:::elasticmapreduce:terminateCluster",
      "Parameters": {
        "ClusterId.$": "$.cluster.ClusterId"
      },
      "Retry": [
        {
          "ErrorEquals": [
            "States.ALL"
          ],
          "IntervalSeconds": 1,
          "MaxAttempts": 2,
          "BackoffRate": 2.0
        }
      ],
      "ResultPath": "$.result",
      "End": true
    }
  }
}